<?xml version="1.0" encoding="utf-8"?>
<!-- Generator: Adobe Illustrator 22.0.1, SVG Export Plug-In . SVG Version: 6.00 Build 0)  -->
<svg version="1.1" id="Warstwa_1" xmlns="http://www.w3.org/2000/svg" xmlns:xlink="http://www.w3.org/1999/xlink" x="0px" y="0px"
	 viewBox="0 0 183.8 41" style="enable-background:new 0 0 183.8 41;" xml:space="preserve">
<style type="text/css">
	.st0{fill:url(#SVGID_1_);}
</style>
<linearGradient id="SVGID_1_" gradientUnits="userSpaceOnUse" x1="180.0927" y1="20.75" x2="3.722" y2="20.75">
	<stop  offset="0" style="stop-color:#45A0BE"/>
	<stop  offset="1" style="stop-color:#005076"/>
</linearGradient>
<path class="st0" d="M161.9,39h-140c-10,0-18.2-8.2-18.2-18.2v0c0-10,8.2-18.2,18.2-18.2h140c10,0,18.2,8.2,18.2,18.2v0
	C180.1,30.8,171.9,39,161.9,39z"/>
</svg>
