<?xml version="1.0" encoding="utf-8"?>
<!-- Generator: Adobe Illustrator 22.0.1, SVG Export Plug-In . SVG Version: 6.00 Build 0)  -->
<svg version="1.1" id="Warstwa_1" xmlns="http://www.w3.org/2000/svg" xmlns:xlink="http://www.w3.org/1999/xlink" x="0px" y="0px"
	 viewBox="0 0 58 77" style="enable-background:new 0 0 58 77;" xml:space="preserve">
<style type="text/css">
	.st0{fill:#59AAC5;}
</style>
<g>
	<g>
		<g>
			<polygon class="st0" points="41.4,23.5 39.3,21.4 40.4,20.4 41.4,21.4 43.3,19.5 44.4,20.5 			"/>
			<path class="st0" d="M41.9,26.4c-2.9,0-5.2-2.3-5.2-5.2S39,16,41.9,16c2.9,0,5.2,2.3,5.2,5.2S44.7,26.4,41.9,26.4z M41.9,17.5
				c-2.1,0-3.7,1.7-3.7,3.7c0,2.1,1.7,3.7,3.7,3.7c2.1,0,3.7-1.7,3.7-3.7C45.6,19.1,43.9,17.5,41.9,17.5z"/>
		</g>
		<g>
			<rect x="38.6" y="55.7" class="st0" width="6.6" height="1.5"/>
			<path class="st0" d="M49.3,60.5h-15c-1.9,0-3.5-1.6-3.5-3.5V24c0-1.9,1.6-3.5,3.5-3.5h3v1.5h-3c-1.1,0-2,0.9-2,2V57
				c0,1.1,0.9,2,2,2h15c1.1,0,2-0.9,2-2V24c0-1.1-0.9-2-2-2h-3v-1.5h3c1.9,0,3.5,1.6,3.5,3.5V57C52.8,58.9,51.3,60.5,49.3,60.5z"/>
			<rect x="31.6" y="27.1" class="st0" width="20.5" height="1.5"/>
			<rect x="31.6" y="52.5" class="st0" width="20.5" height="1.5"/>
		</g>
		<g>
			<path class="st0" d="M41.7,48.3c-4.3,0-7.8-3.5-7.8-7.8c0-4.3,3.5-7.8,7.8-7.8c4.3,0,7.8,3.5,7.8,7.8
				C49.5,44.8,46,48.3,41.7,48.3z M41.7,34.1c-3.5,0-6.3,2.8-6.3,6.3c0,3.5,2.8,6.3,6.3,6.3c3.5,0,6.3-2.8,6.3-6.3
				C48,37,45.2,34.1,41.7,34.1z"/>
			<g>
				<path class="st0" d="M42.2,41.2h-2.8c-0.4,0-0.7-0.3-0.7-0.7v-3.4c0-0.4,0.3-0.7,0.7-0.7h2.8c0.7,0,1.3,0.3,1.7,0.7
					c0.5,0.5,0.7,1.1,0.7,1.7c0,0.7-0.3,1.3-0.7,1.7C43.5,41,42.9,41.2,42.2,41.2z M40.1,39.8h2.1c0.3,0,0.5-0.1,0.7-0.3
					c0.2-0.2,0.3-0.4,0.3-0.7c0-0.3-0.1-0.5-0.3-0.7c-0.2-0.2-0.4-0.3-0.7-0.3h-2.1V39.8z"/>
				<path class="st0" d="M42.2,44.6h-2.8c-0.4,0-0.7-0.3-0.7-0.7v-3.4c0-0.4,0.3-0.7,0.7-0.7h2.8c0.7,0,1.3,0.3,1.7,0.7
					c0.5,0.5,0.7,1.1,0.7,1.7c0,0.7-0.3,1.3-0.7,1.7C43.5,44.4,42.9,44.6,42.2,44.6z M40.1,43.2h2.1c0.3,0,0.5-0.1,0.7-0.3
					c0.2-0.2,0.3-0.4,0.3-0.7c0-0.3-0.1-0.5-0.3-0.7c-0.2-0.2-0.4-0.3-0.7-0.3h-2.1V43.2z"/>
			</g>
		</g>
	</g>
	<g>
		<g>
			<rect x="17.5" y="23.8" class="st0" width="1.6" height="1.5"/>
			<rect x="15" y="55.7" class="st0" width="6.6" height="1.5"/>
			<path class="st0" d="M25.8,60.5h-15c-1.9,0-3.5-1.6-3.5-3.5V24c0-1.9,1.6-3.5,3.5-3.5h15c1.9,0,3.5,1.6,3.5,3.5V57
				C29.3,58.9,27.7,60.5,25.8,60.5z M10.8,21.9c-1.1,0-2,0.9-2,2V57c0,1.1,0.9,2,2,2h15c1.1,0,2-0.9,2-2V24c0-1.1-0.9-2-2-2H10.8z"
				/>
			<rect x="8.1" y="27.1" class="st0" width="20.5" height="1.5"/>
			<rect x="8.1" y="52.5" class="st0" width="20.5" height="1.5"/>
		</g>
		<g>
			<path class="st0" d="M18.3,48.3c-4.3,0-7.8-3.5-7.8-7.8c0-4.3,3.5-7.8,7.8-7.8c4.3,0,7.8,3.5,7.8,7.8
				C26.1,44.8,22.6,48.3,18.3,48.3z M18.3,34.1c-3.5,0-6.3,2.8-6.3,6.3c0,3.5,2.8,6.3,6.3,6.3c3.5,0,6.3-2.8,6.3-6.3
				C24.6,37,21.8,34.1,18.3,34.1z"/>
			<g>
				<path class="st0" d="M21.3,44.6h-1.5v-5.8c0-0.3-0.1-0.5-0.3-0.7c-0.2-0.2-0.4-0.3-0.7-0.3h-1.1c-0.3,0-0.5,0.1-0.7,0.3
					c-0.2,0.2-0.3,0.4-0.3,0.7v5.8h-1.5v-5.8c0-0.7,0.3-1.3,0.7-1.7c0.5-0.5,1.1-0.7,1.7-0.7h1.1c0.7,0,1.3,0.3,1.7,0.7
					c0.5,0.5,0.7,1.1,0.7,1.7V44.6z"/>
				<rect x="15.3" y="39.8" class="st0" width="6" height="1.5"/>
			</g>
		</g>
	</g>
</g>
</svg>
