<?xml version="1.0" encoding="utf-8"?>
<!-- Generator: Adobe Illustrator 22.0.1, SVG Export Plug-In . SVG Version: 6.00 Build 0)  -->
<svg version="1.1" id="Ńëîé_1" xmlns="http://www.w3.org/2000/svg" xmlns:xlink="http://www.w3.org/1999/xlink" x="0px" y="0px"
	 viewBox="0 0 765.7 740.2" style="enable-background:new 0 0 765.7 740.2;" xml:space="preserve">
<style type="text/css">
	.st0{fill:#06577D;}
	.st1{fill:none;stroke:#06577D;stroke-miterlimit:10;}
	.st2{fill:none;stroke:#06577D;stroke-width:0.5;stroke-miterlimit:10;}
</style>
<g>
	<g>
		<g>
			<path class="st0" d="M576.6,289.8c-5.2-14.2-15.7-25.5-29.4-31.8c-7.5-3.4-15.4-5.2-23.5-5.2c-14.1,0-27.4,5.3-37.6,14.3
				l-7.1-3.3c3.5-3.2,7.5-6.1,11.8-8.4c0.2-0.1,0.3-0.2,0.4-0.4l0.2-0.4c0.2-0.4,0-0.9-0.4-1.1l-38.4-17.7l-4.5-10.6
				c-0.1-0.2-0.2-0.3-0.4-0.4l-178.8-82.2c-0.4-0.2-0.9,0-1.1,0.4l-1.2,2.7l-0.4-0.2c-0.8-0.4-1.8-0.1-2.2,0.6
				c0.4-0.8,0.1-1.8-0.7-2.2c-1-0.5-1.9-1.1-2.9-1.6c-0.7-0.4-1.7-0.2-2.2,0.4c0.3-0.8,0.1-1.7-0.7-2.1c-1-0.6-1.9-1.2-2.8-1.7
				c-0.7-0.5-1.6-0.3-2.2,0.3c0.4-0.7,0.1-1.7-0.6-2.1c-0.9-0.6-1.8-1.2-2.7-1.8c-0.7-0.5-1.6-0.4-2.2,0.2c0.4-0.7,0.2-1.6-0.5-2.1
				c-0.9-0.7-1.8-1.3-2.7-2c-0.7-0.5-1.6-0.4-2.2,0.2c0.4-0.7,0.2-1.6-0.4-2.2c-0.1-0.1-0.2-0.1-0.2-0.2c-0.2-0.8-0.4-1.5-0.7-2.3
				c-2.3-6.3-7-11.3-13-14.1c-2.4-1.1-4.9-1.8-7.5-2.1c-0.4-0.3-0.8-0.7-1.1-1c-0.7-0.5-1.6-0.5-2.2,0.1c0.4-0.7,0.2-1.7-0.5-2.2
				c-1-0.7-1.9-1.4-2.8-2c-0.7-0.5-1.7-0.3-2.2,0.4c0.3-0.8,0-1.7-0.8-2.1c-1.1-0.5-2.1-1-3.2-1.4c-0.8-0.3-1.7,0.1-2.1,0.9
				c0.1-0.9-0.4-1.7-1.3-1.9c-1.1-0.3-2.3-0.5-3.5-0.6c-0.9-0.1-1.7,0.5-1.8,1.3c-0.1-0.9-0.8-1.5-1.7-1.5l-0.4,0c-1,0-2,0-3,0.1
				c-0.9,0.1-1.5,0.8-1.6,1.6c-0.2-0.8-1-1.4-1.9-1.3c-1.1,0.2-2.2,0.4-3.4,0.6c-0.9,0.2-1.4,1-1.3,1.8c-0.3-0.8-1.1-1.3-2-1.1
				c-1.1,0.3-2.2,0.6-3.3,0.9c-0.8,0.2-1.3,1.1-1.2,1.9c-0.4-0.8-1.3-1.1-2.1-0.8c-1.1,0.4-2.2,0.8-3.2,1.3c-0.8,0.3-1.2,1.2-0.9,2
				c-0.5-0.7-1.4-0.9-2.2-0.6c-1,0.5-2,1.1-3,1.7c-0.7,0.5-1,1.4-0.6,2.1c-0.6-0.6-1.5-0.7-2.2-0.2c-0.9,0.7-1.8,1.4-2.7,2.2
				c-0.7,0.6-0.8,1.5-0.3,2.2c-0.7-0.5-1.6-0.5-2.2,0.2c-0.8,0.8-1.6,1.7-2.3,2.6c-0.5,0.7-0.5,1.6,0.1,2.2
				c-0.8-0.4-1.7-0.2-2.2,0.6c-0.6,0.9-1.2,1.9-1.8,2.9c-0.4,0.8-0.2,1.7,0.5,2.2c-0.8-0.3-1.7,0.1-2.1,0.9c-0.5,1-0.9,2.1-1.4,3.2
				c-0.3,0.8,0,1.7,0.8,2.1c-0.8-0.2-1.7,0.3-2,1.1c-0.4,1.1-0.7,2.2-1,3.3c-0.2,0.8,0.2,1.7,1,2c-0.8-0.1-1.6,0.4-1.8,1.3
				c-0.3,1.1-0.5,2.2-0.7,3.3c-0.2,0.8,0.3,1.7,1.1,1.9c-0.9,0-1.6,0.5-1.8,1.4c-0.2,1.1-0.4,2.2-0.5,3.3c-0.1,0.9,0.4,1.7,1.2,1.9
				c-0.8,0-1.6,0.6-1.7,1.5c-0.1,1.1-0.3,2.2-0.4,3.3c-0.1,0.9,0.5,1.6,1.3,1.8c-0.8,0-1.6,0.7-1.6,1.5c-0.1,1.1-0.2,2.2-0.3,3.3
				c-0.1,0.9,0.5,1.6,1.3,1.8c-0.8,0-1.5,0.7-1.6,1.5l-0.3,3.3c-0.1,0.9,0.5,1.6,1.3,1.8c-0.8,0-1.5,0.7-1.6,1.5l-0.3,3.3
				c-0.1,0.9,0.5,1.6,1.3,1.8c-0.8,0-1.5,0.7-1.6,1.5c-0.1,1.1-0.2,2.2-0.3,3.3c-0.1,0.9,0.5,1.6,1.3,1.8c-0.8,0-1.5,0.7-1.6,1.5
				c-0.1,1.1-0.2,2.2-0.4,3.3c-0.1,0.8,0.5,1.6,1.3,1.8c-0.8,0-1.6,0.6-1.7,1.5c-0.1,1.1-0.3,2.2-0.4,3.3c-0.1,0.8,0.4,1.6,1.2,1.9
				c-0.8,0-1.6,0.6-1.7,1.4c-0.2,1.1-0.3,2.2-0.5,3.3c-0.1,0.8,0.4,1.6,1.1,1.9c-0.8-0.1-1.6,0.5-1.7,1.4c-0.2,1.1-0.4,2.2-0.7,3.2
				c-0.2,0.8,0.3,1.7,1.1,1.9c-0.8-0.1-1.6,0.5-1.8,1.3c-0.3,1.1-0.5,2.1-0.8,3.2c-0.2,0.8,0.2,1.7,1,2c-0.8-0.1-1.6,0.4-1.9,1.2
				l-0.2,0.7c-0.2,0.7-0.5,1.4-0.9,2.1c-0.4,0.7-0.1,1.6,0.5,2.1c-0.7-0.3-1.6,0-2,0.6c-0.5,0.8-1.2,1.7-1.9,2.6
				c-0.5,0.7-0.5,1.6,0.1,2.2c-0.7-0.5-1.6-0.4-2.2,0.3c-0.7,0.8-1.5,1.6-2.3,2.4c-0.6,0.6-0.6,1.6-0.1,2.2
				c-0.7-0.5-1.6-0.5-2.2,0.1l-2.4,2.4c-0.6,0.6-0.7,1.6-0.1,2.2c-0.7-0.5-1.6-0.5-2.2,0.2c-0.8,0.8-1.6,1.7-2.3,2.5
				c-0.6,0.7-0.5,1.6,0,2.3c-0.7-0.5-1.7-0.3-2.2,0.4c-0.7,1-1.4,1.9-2,2.8c-0.5,0.7-0.3,1.7,0.4,2.2c-0.8-0.3-1.7,0-2.1,0.8
				c-0.5,1.1-1,2.2-1.4,3.3c-0.3,0.8,0.1,1.7,0.9,2.1c-0.9-0.1-1.7,0.5-1.8,1.4c-0.2,1.2-0.3,2.4-0.4,3.5c0,0.9,0.6,1.6,1.5,1.7
				c-0.9,0.1-1.5,0.9-1.4,1.8c0.1,1.1,0.3,2.3,0.6,3.5c0.2,0.9,1,1.4,1.9,1.3c-0.8,0.3-1.2,1.2-0.9,2.1c0.3,1.1,0.8,2.2,1.2,3.3
				c0.3,0.6,0.9,1,1.5,1c0.2,0,0.4,0,0.7-0.1c0.9-0.4,1.3-1.3,0.9-2.2c-0.4-1-0.8-2-1.1-3c-0.3-0.8-1-1.2-1.8-1.1
				c0.7-0.3,1.2-1.1,1-1.9c-0.2-1-0.4-2.1-0.5-3.1c-0.1-0.8-0.7-1.4-1.5-1.5c0.8-0.1,1.4-0.8,1.4-1.6c0-1,0.2-2.1,0.3-3.1
				c0.1-0.8-0.3-1.6-1-1.9c0.8,0.1,1.5-0.4,1.8-1.1c0.3-1,0.7-1.9,1.2-2.9c0.4-0.7,0.1-1.6-0.5-2.1c0.7,0.3,1.6,0,2-0.7
				c0.5-0.9,1.2-1.7,1.8-2.6c0.5-0.7,0.4-1.6-0.1-2.2c0.7,0.4,1.6,0.3,2.2-0.3c0.7-0.8,1.5-1.6,2.2-2.4c0.6-0.6,0.6-1.6,0.1-2.2
				c0.7,0.5,1.6,0.5,2.2-0.1l2.4-2.3c0.6-0.6,0.7-1.6,0.1-2.2c0.7,0.5,1.6,0.5,2.2-0.1c0.8-0.8,1.6-1.6,2.3-2.5
				c0.6-0.6,0.6-1.6,0-2.3c0.7,0.5,1.7,0.3,2.2-0.3c0.8-1,1.5-1.9,2.1-2.8c0.5-0.7,0.3-1.7-0.4-2.3c0.8,0.3,1.8,0,2.1-0.8
				c0.4-0.8,0.8-1.7,1-2.6l0.2-0.8c0.2-0.8-0.2-1.7-1-2c0.8,0.1,1.6-0.4,1.9-1.2c0.3-1.1,0.6-2.2,0.8-3.3c0.2-0.8-0.3-1.7-1.1-2
				c0.8,0.1,1.6-0.5,1.8-1.3c0.2-1.1,0.5-2.2,0.7-3.3c0.2-0.8-0.3-1.7-1.1-1.9c0.9,0.1,1.6-0.5,1.8-1.4c0.2-1.1,0.4-2.2,0.5-3.3
				c0.1-0.9-0.4-1.7-1.2-1.9c0.8,0,1.6-0.6,1.7-1.5c0.2-1.1,0.3-2.2,0.4-3.3c0.1-0.9-0.4-1.6-1.3-1.8c0.8,0,1.6-0.6,1.7-1.5
				c0.1-1.1,0.2-2.2,0.4-3.3c0.1-0.9-0.5-1.6-1.3-1.8c0.8,0,1.6-0.7,1.6-1.5c0.1-1.1,0.2-2.2,0.3-3.3c0.1-0.9-0.5-1.6-1.3-1.8
				c0.8,0,1.5-0.7,1.6-1.5l0.3-3.3c0.1-0.9-0.5-1.6-1.3-1.8c0.8,0,1.5-0.7,1.6-1.5l0.3-3.3c0.1-0.9-0.5-1.6-1.3-1.8
				c0.8,0,1.5-0.7,1.6-1.5c0.1-1.1,0.2-2.2,0.3-3.3c0.1-0.9-0.5-1.6-1.3-1.8c0.8,0,1.5-0.6,1.6-1.5c0.1-1.1,0.2-2.2,0.4-3.3
				c0.1-0.8-0.4-1.6-1.2-1.8c0.8,0,1.6-0.6,1.7-1.4c0.2-1.1,0.3-2.2,0.5-3.3c0.1-0.8-0.4-1.6-1.1-1.9c0.8,0,1.6-0.5,1.7-1.4
				c0.2-1.1,0.4-2.2,0.7-3.2c0.2-0.8-0.3-1.6-1-1.9c0.8,0.1,1.6-0.4,1.8-1.2c0.3-1.1,0.6-2.1,0.9-3.1c0.3-0.8-0.1-1.6-0.8-2
				c0.8,0.2,1.6-0.2,1.9-1c0.4-1,0.8-2,1.3-3c0.4-0.7,0.1-1.6-0.5-2.1c0.8,0.3,1.6,0,2-0.8c0.5-0.9,1.1-1.9,1.7-2.7
				c0.5-0.7,0.4-1.6-0.2-2.1c0.7,0.4,1.6,0.2,2.1-0.4c0.7-0.8,1.4-1.6,2.1-2.4c0.6-0.6,0.6-1.5,0.2-2.1c0.6,0.5,1.5,0.5,2.1-0.1
				c0.8-0.7,1.6-1.4,2.5-2c0.7-0.5,0.9-1.4,0.5-2.1c0.5,0.6,1.4,0.7,2.1,0.3c0.9-0.6,1.8-1.1,2.8-1.6c0.7-0.4,1.1-1.2,0.8-2
				c0.4,0.7,1.3,0.9,2.1,0.6c1-0.4,2-0.8,3-1.2c0.8-0.3,1.2-1.1,1.1-1.9c0.4,0.7,1.2,1.1,2,0.9c1-0.3,2.1-0.6,3.1-0.9
				c0.8-0.2,1.3-1,1.3-1.8c0.3,0.8,1.1,1.2,1.9,1.1c1.1-0.2,2.2-0.4,3.2-0.6c0.8-0.1,1.4-0.8,1.4-1.6c0.2,0.8,0.9,1.3,1.8,1.3
				c1-0.1,1.9-0.1,2.8-0.1l0.4,0c0.8,0,1.5-0.6,1.7-1.3c0.1,0.8,0.7,1.4,1.5,1.5c1,0.1,2.1,0.3,3.1,0.5c0.8,0.2,1.6-0.2,1.9-0.9
				c-0.1,0.8,0.3,1.5,1.1,1.8c1,0.4,1.9,0.8,2.9,1.3c0.7,0.4,1.6,0.2,2.1-0.5c-0.3,0.7,0,1.6,0.7,2c0.9,0.5,1.7,1.1,2.6,1.8
				c0.2,0.2,0.5,0.2,0.7,0.3c-8.9,0.8-16.8,6.3-20.6,14.5c-4.5,9.8-2.1,21,5.1,28.2c-0.1,0.1-0.2,0.2-0.3,0.3l-0.6,1.2
				c-1.3-1.2-2.4-2.4-3.3-3.8c-0.2-0.2-0.5-0.4-0.8-0.4c-0.3,0-0.6,0.2-0.7,0.5l-41.5,83.2l-2-1l42.4-84.9c0.1-0.3,0.1-0.6-0.1-0.9
				c-3.1-4.1-3-6.5-2.8-10.6l0-0.2c0-0.4-0.3-0.7-0.6-0.8c-0.4-0.1-0.8,0.1-1,0.4l-51.6,103.4c-0.1,0.2-0.1,0.4,0,0.7
				c0.1,0.2,0.2,0.4,0.5,0.5l2.2,0.9l-13.2,28.6c-2,0.7-3.5,2.5-3.5,4.8c0,0,0,0.1,0,0.1l-5.1,1.9c0,0-0.1,0-0.1,0.1c0,0,0,0,0,0
				c-0.3-0.5-0.5-1-0.8-1.4c-0.4-0.8-1.4-1.2-2.3-0.7c-0.8,0.4-1.1,1.4-0.7,2.3c0.3,0.5,0.5,1,0.8,1.5c0.3,0.6,0.9,0.9,1.5,0.9
				c0.2,0,0.5-0.1,0.7-0.2c0.3,0.5,0.9,0.9,1.5,0.9c0.2,0,0.4,0,0.6-0.1l5.2-1.9c0.6,0.8,1.5,1.3,2.5,1.6l0.9,2.6l-8.6,2.9
				c-0.2,0.1-0.4,0.2-0.5,0.4c-0.1,0.2-0.1,0.4,0,0.6l0.6,1.7c0.1,0.4,0.6,0.7,1.1,0.5l3.1-1l1.1,3.3l-3.1,1
				c-0.2,0.1-0.4,0.2-0.5,0.4c-0.1,0.2-0.1,0.4,0,0.6l0.5,1.6c0.1,0.2,0.2,0.4,0.4,0.5c0.2,0.1,0.4,0.1,0.6,0l3.1-1l1.1,3.3l-3.1,1
				c-0.4,0.1-0.7,0.6-0.5,1.1l0.5,1.6c0.1,0.4,0.6,0.7,1.1,0.5l3.1-1l1.1,3.3l-3.1,1c-0.4,0.1-0.7,0.6-0.5,1.1l0.5,1.6
				c0.1,0.2,0.2,0.4,0.4,0.5c0.2,0.1,0.4,0.1,0.6,0l3.1-1l1.1,3.3l-3.1,1c-0.2,0.1-0.4,0.2-0.5,0.4c-0.1,0.2-0.1,0.4,0,0.6l0.5,1.6
				c0.1,0.2,0.2,0.4,0.4,0.5c0.2,0.1,0.4,0.1,0.6,0l3.1-1l1.1,3.3l-3.1,1c-0.2,0.1-0.4,0.2-0.5,0.4c-0.1,0.2-0.1,0.4,0,0.6l0.5,1.6
				c0.1,0.4,0.6,0.7,1.1,0.5l3.1-1l1.1,3.3l-3.1,1c-0.2,0.1-0.4,0.2-0.5,0.4c-0.1,0.2-0.1,0.4,0,0.6l0.6,1.6
				c0.1,0.4,0.6,0.7,1.1,0.5l3.1-1l1.1,3.3l-3.1,1c-0.4,0.1-0.7,0.6-0.5,1.1l2.1,6.4l-6,2.1c-2.6-7.6-5.6-16.1-6.7-19.7
				c-0.1-0.3-0.4-0.4-0.7-0.4c-6.8,1.7-4.6,12.4-4.5,13l28.5,82.4c0,0.1,0.1,0.1,0.1,0.2l13.6,16.7c0.1,0.1,0.3,0.2,0.4,0.2
				c0.1,0,0.1,0,0.2,0l12-4.1c0.1,0,0.3-0.2,0.3-0.3c0.1-0.1,0.1-0.3,0-0.4l-7-20.2l2.9-1l14.7,43.4c0.1,0.3,0.4,0.5,0.7,0.4
				l6.4-2.2c0.3-0.1,0.5-0.4,0.4-0.7L175.6,405l2.8-0.9l7.1,20.7c0,0.1,0.2,0.3,0.3,0.3c0.1,0,0.2,0.1,0.2,0.1c0.1,0,0.1,0,0.2,0
				l12-4.1c0.2-0.1,0.4-0.3,0.4-0.5L199,399c0-0.1,0-0.1,0-0.2l-30-87.2c0-0.1-0.1-0.2-0.1-0.2c-0.1-0.1-3.2-3.2-7.5-3.2
				c-0.8,0-1.5,0.1-2.3,0.3c-0.2,0-0.3,0.1-0.4,0.3c-0.1,0.1-0.1,0.3,0,0.5c1.1,3.1,4,11.5,6.6,19.2l-4.9,1.7l-2-6.1
				c-0.1-0.4-0.6-0.7-1.1-0.5l-3.5,1.2l-1.1-3.3l3.5-1.2c0.4-0.1,0.7-0.6,0.5-1.1l-0.5-1.6c-0.1-0.2-0.2-0.4-0.4-0.5
				c-0.2-0.1-0.4-0.1-0.6,0l-3.5,1.2l-1.1-3.3l3.5-1.2c0.2-0.1,0.4-0.2,0.5-0.4c0.1-0.2,0.1-0.4,0-0.6L154,311
				c-0.1-0.4-0.6-0.7-1.1-0.5l-3.5,1.2l-1.1-3.3l3.5-1.2c0.2-0.1,0.4-0.2,0.5-0.4c0.1-0.2,0.1-0.4,0-0.6l-0.5-1.6
				c-0.1-0.4-0.6-0.7-1.1-0.5l-3.5,1.2l-1.1-3.3l3.5-1.2c0.2-0.1,0.4-0.2,0.5-0.4c0.1-0.2,0.1-0.4,0-0.6l-0.5-1.6
				c-0.1-0.4-0.6-0.7-1.1-0.5l-3.5,1.2l-1.1-3.3l3.5-1.2c0.4-0.1,0.7-0.6,0.5-1.1l-0.5-1.6c-0.1-0.4-0.6-0.7-1.1-0.5l-2.6,0.9
				l10.9-21.9c0.2-0.4,0-0.9-0.4-1.1l7.6,3.8c0.1,0.1,0.2,0.1,0.4,0.1c0.1,0,0.2,0,0.3,0c0.2-0.1,0.4-0.2,0.5-0.4l47.1-94.3
				l18.6,8.6c0,0.1,0,0.3,0.1,0.4l2.4,4.9c0.1,0.2,0.2,0.3,0.4,0.4l30.1,13.8l-0.5,1.1c-1.1,2.4,0,5.3,2.4,6.5l7.4,3.4
				c0.6,0.3,1.3,0.4,2,0.4c1.9,0,3.6-1.1,4.4-2.8l0.5-1.1l35.4,16.3l-0.5,1.1c-0.5,1.2-0.6,2.5-0.1,3.7c0.5,1.2,1.4,2.2,2.5,2.7
				l7.4,3.4c2.4,1.1,5.4,0,6.5-2.4l0.5-1.1l53.8,24.7c0.1,0.1,0.2,0.1,0.4,0.1c0.3,0,0.6-0.2,0.8-0.5l4.7-10.2
				c0.1-0.2,0.1-0.4,0-0.6c-0.1-0.2-0.2-0.4-0.4-0.5l-53.8-24.7l2.8-6c0.1-0.3,0.2-0.5,0.3-0.8l0.1-0.2l45.2,20.8l-1.4,3
				c-0.2,0.4,0,0.9,0.4,1.1l10.7,4.9l-8.5,18.4l-10.2-4.7c-0.3-0.1-0.5-0.1-0.8,0c-0.2,0.1-0.4,0.4-0.4,0.7c-0.3,4.1,2,8,5.7,9.7
				l77,35.4c0.9,0.4,1.9,0.7,3,0.8c0,0,0.1,0,0.1,0c0.2,0,0.4-0.1,0.6-0.2c0.2-0.2,0.3-0.4,0.3-0.6c0-0.8,0-1.7,0-2.5l7,3.2
				c-0.1,6.9,1.1,13.9,3.5,20.6c5.2,14.2,15.7,25.5,29.4,31.8c7.5,3.4,15.4,5.2,23.5,5.2c0,0,0,0,0,0c22.1,0,42.3-12.9,51.5-32.9
				C581.3,319.3,581.8,304,576.6,289.8z M241.7,134C241.7,134,241.7,134,241.7,134c0.9,0.7,1.8,1.4,2.8,2c0.7,0.5,1.7,0.4,2.2-0.2
				c-0.4,0.7-0.2,1.7,0.5,2.2c0.9,0.6,1.8,1.3,2.8,1.9c0.7,0.5,1.7,0.3,2.2-0.3c-0.4,0.8-0.1,1.7,0.6,2.1c0.9,0.6,1.9,1.2,2.9,1.8
				c0.7,0.5,1.7,0.3,2.2-0.4c-0.3,0.8,0,1.7,0.7,2.1c1,0.6,1.9,1.1,2.9,1.7c0.8,0.4,1.8,0.2,2.3-0.6c-0.4,0.8-0.1,1.8,0.7,2.2
				l0.6,0.3l-3.1,6.8l-22-10.1c-0.1,0-0.1,0-0.2,0C241.3,141.8,241.9,137.9,241.7,134z M195.4,125.8c3.8-8.3,12.2-13.6,21.3-13.6
				c3.4,0,6.6,0.7,9.7,2.1c5.7,2.6,10,7.3,12.1,13.1c2.2,5.9,1.9,12.2-0.7,17.9c-3.8,8.3-12.2,13.6-21.3,13.6
				c-3.4,0-6.6-0.7-9.7-2.1C195.2,151.4,190.1,137.5,195.4,125.8z M152.6,236.6l2.8,1.4l-1.1,2.2l-2.8-1.4L152.6,236.6z
				 M151.1,235.8l-1.1,2.3l-2-1l1.1-2.3L151.1,235.8z M139.4,261.2l7.7,3.9c-0.2-0.1-0.4-0.1-0.6,0c-0.2,0.1-0.4,0.2-0.5,0.4
				l-6.5,13l-7.1,2.4l-0.9-2.9c0,0,0,0,0,0c0.5-0.8,0.8-1.7,0.8-2.6c0-2.1-1.3-3.9-3.1-4.7l12.7-27.5l1.9,0.8c0.1,0,0.2,0.1,0.3,0.1
				c0.3,0,0.6-0.2,0.8-0.5l2.5-4.9l2,1L139,260C138.8,260.5,139,261,139.4,261.2z M131.1,281.2l-3.2,1.1l-0.6-2
				c1.2,0,2.3-0.5,3.1-1.2L131.1,281.2z M146.5,236.3l-2.1-1.1l1.1-2.2l2.1,1L146.5,236.3z M138,239.7l49.6-99.4
				c0.1,2.5,0.7,4.8,2.9,7.8l-42.2,84.4l-2.8-1.4c-0.4-0.2-0.9,0-1.1,0.4l-1.9,3.7c-0.1,0.2-0.1,0.4-0.1,0.6
				c0.1,0.2,0.2,0.4,0.4,0.5l2.8,1.4l-2.1,4.2L138,239.7z M139.6,242.4l1.1,0.5l-12.6,27.3c-0.3-0.1-0.7-0.1-1-0.1
				c-0.1,0-0.2,0-0.3,0L139.6,242.4z M124.6,277.5c0.2-0.4,0.3-0.9,0.1-1.4c-0.2-0.5-0.6-0.8-1-1c0-1.6,1.2-3,2.8-3.3l1.4,0.3
				c0,0,0.1,0,0.1,0c0.1,0,0.2,0,0.3-0.1c1.3,0.5,2.2,1.7,2.2,3.2c0,1.1-0.6,2.1-1.4,2.7l-2,0.7
				C126.1,278.6,125.2,278.2,124.6,277.5z M135.5,340.7l2.3,7l-5.3,1.8l-2.4-7L135.5,340.7z M164.9,343.6l-1.1-3.2l5-1.7
				c0.9,2.5,1.5,4.3,1.6,4.8l-2.8,29.2c0,0.1,0,0.2,0,0.2l1.7,5l-2.6,0.9l-4.3-12.6c0.1-0.1,0.2-0.3,0.2-0.5l2.3-21.8
				C164.9,343.8,164.9,343.7,164.9,343.6z M166.5,399.2l-0.8-2.3l5.3-1.8l0.8,2.3L166.5,399.2z M172.2,398.5l0.8,2.3l-5.3,1.8
				l-0.8-2.3L172.2,398.5z M165.4,395.8l-0.8-2.3l5.3-1.8l0.8,2.3L165.4,395.8z M164.2,392.4l-0.8-2.3l5.3-1.8l0.8,2.3L164.2,392.4z
				 M163.1,389l-0.8-2.3l5.3-1.8l0.8,2.3L163.1,389z M161.9,385.7l-0.8-2.3l5.3-1.8l0.8,2.3L161.9,385.7z M163,371.4l0.8,2.3
				l-5.3,1.8l-0.8-2.3L163,371.4z M157.3,372.1l-1.3-3.7l5.3-1.8l1.3,3.7L157.3,372.1z M164.2,374.8l0.8,2.3l-5.3,1.8l-0.8-2.3
				L164.2,374.8z M165.3,378.2l0.3,1l-5.3,1.8l-0.3-1L165.3,378.2z M166,380.2l0.1,0.3l-5.3,1.8l-0.1-0.2L166,380.2z M161,365l-6,2
				l-14.2-15.5l-0.9-2.7l22.3-7.8l1,3L161,365z M154.2,368.5c0.2,0.2,0.4,0.3,0.6,0.3c0.1,0,0.1,0,0.2,0l4.2,12.6l-3.1,1l-1.9-5.6
				c0-0.1-0.1-0.1-0.1-0.2l-20.2-21.2c-0.1-0.4-0.7-1.9-1.4-4.1l5.8-2l1,2.9c0,0.1,0.1,0.2,0.2,0.3L154.2,368.5z M171,428.5
				l-11.1,3.8l-13.3-16.3l-28.4-82.2c0-0.1-2-9.5,3.2-11.4c2.6,7.8,11.5,33.2,11.6,33.4c0,0.1,0.1,0.1,0.1,0.2l20.2,21.2l1.9,5.4
				l-4.4,1.5c-0.7-1.5-2.2-2.5-3.9-2.5c-0.5,0-1,0.1-1.4,0.2c-1.1,0.4-2,1.2-2.5,2.2c-0.5,1.1-0.6,2.2-0.2,3.3c0.6,1.8,2.3,3,4.2,3
				c0.5,0,1-0.1,1.4-0.2c1.1-0.4,2-1.2,2.5-2.2c0.4-0.9,0.5-1.9,0.3-2.8l4.4-1.5l8.3,24l-5.4,1.8c-0.7-1.5-2.2-2.5-3.9-2.5
				c-0.5,0-1,0.1-1.4,0.2c-1.1,0.4-2,1.2-2.5,2.2c-0.5,1-0.6,2.2-0.2,3.3c0.6,1.8,2.3,3,4.2,3c0.5,0,1-0.1,1.4-0.2
				c2.1-0.7,3.3-2.9,2.9-5l5.4-1.8L171,428.5z M146.3,386.3c0.1,0.2,0.3,0.4,0.5,0.4c0.1,0,0.1,0,0.2,0l3-1c0.2,1.5-0.6,3.1-2.2,3.6
				c-1.7,0.6-3.6-0.4-4.1-2c-0.3-0.8-0.2-1.7,0.2-2.5c0.4-0.8,1-1.4,1.9-1.6c0.3-0.1,0.7-0.2,1-0.2c1.2,0,2.3,0.7,2.8,1.7l-3,1
				C146.4,385.7,146.2,386,146.3,386.3z M153.9,411.7c0.1,0.2,0.3,0.4,0.5,0.4c0.1,0,0.1,0,0.2,0l3-1c0.2,1.5-0.6,3.1-2.2,3.6
				c-1.7,0.6-3.6-0.4-4.1-2c-0.6-1.7,0.3-3.6,2-4.1c0.3-0.1,0.7-0.2,1-0.2c1.2,0,2.3,0.7,2.8,1.7l-3,1
				C154,411.1,153.8,411.4,153.9,411.7z M164.9,407.4l-8.3-24l3.1-1l8.1,24.1L164.9,407.4z M168,403.7l5.3-1.8l0.8,2.3l-5.3,1.8
				L168,403.7z M169.2,407.1l5.3-1.8l0.8,2.2l-5.3,1.8L169.2,407.1z M189,448.2l-5.3,1.8l-0.8-2.3l5.3-1.8L189,448.2z M187.8,444.8
				l-5.3,1.8l-0.8-2.3l5.3-1.8L187.8,444.8z M186.7,441.4l-5.3,1.8l-0.8-2.3l5.3-1.8L186.7,441.4z M185.5,438l-5.3,1.8l-0.8-2.3
				l5.3-1.8L185.5,438z M184.4,434.7l-5.3,1.8l-0.8-2.3l5.3-1.8L184.4,434.7z M183.2,431.3l-5.3,1.8l-0.8-2.3l5.3-1.8L183.2,431.3z
				 M182.1,427.9l-5.3,1.8l-0.8-2.3l5.3-1.8L182.1,427.9z M181,424.5l-5.3,1.8l-0.8-2.3l5.3-1.8L181,424.5z M179.8,421.1l-5.3,1.8
				l-0.8-2.3l5.3-1.8L179.8,421.1z M178.7,417.7l-5.3,1.8l-0.8-2.3l5.3-1.8L178.7,417.7z M177.5,414.3l-5.3,1.8l-0.8-2.3l5.3-1.8
				L177.5,414.3z M175.6,408.6l0.8,2.3l-5.3,1.8l-0.8-2.3L175.6,408.6z M175.2,403.9l-8.1-24.1l2.7-0.9l8.3,24L175.2,403.9z
				 M160,309.5c0.5-0.1,0.9-0.1,1.4-0.1c3.4,0,6.1,2.3,6.6,2.7l29.9,86.9l-0.4,21l-11.1,3.8l-6.9-20.2l5.6-1.9
				c0.7,1.5,2.2,2.5,3.9,2.5c0.5,0,1-0.1,1.4-0.2c1.1-0.4,2-1.2,2.5-2.2c0.5-1.1,0.6-2.2,0.2-3.3c-0.6-1.8-2.3-3-4.2-3
				c-0.5,0-1,0.1-1.4,0.2c-1.1,0.4-2,1.2-2.5,2.2c-0.4,0.9-0.5,1.9-0.3,2.8l-5.6,1.9l-8.3-24l6.6-2.2c0.7,1.5,2.2,2.5,3.9,2.5
				c0.5,0,1-0.1,1.4-0.2c1.1-0.4,2-1.2,2.5-2.2c0.5-1.1,0.6-2.2,0.2-3.3c-0.6-1.8-2.3-3-4.2-3c-0.5,0-1,0.1-1.4,0.2
				c-1.1,0.4-2,1.2-2.5,2.2c-0.4,0.9-0.5,1.9-0.3,2.8l-6.6,2.2l-1.7-4.9l2.8-29.2c0-0.1,0-0.2,0-0.2c0-0.1-0.8-2.3-1.9-5.6
				c0,0,0-0.1,0-0.1l-1.5-4.4C165.2,324.8,161.5,313.8,160,309.5z M189.4,399.7c-0.1-0.3-0.4-0.5-0.7-0.4l-3,1
				c-0.2-1.5,0.6-3.1,2.2-3.6c0.3-0.1,0.7-0.2,1-0.2c1.4,0,2.6,0.9,3.1,2.2c0.3,0.8,0.2,1.7-0.2,2.5c-0.4,0.8-1.1,1.4-1.9,1.6
				c-1.5,0.5-3.1-0.2-3.9-1.5l3-1C189.4,400.3,189.5,400,189.4,399.7z M181.8,374.2c-0.1-0.3-0.4-0.5-0.7-0.4l-3,1
				c-0.2-1.5,0.6-3.1,2.2-3.6c0.3-0.1,0.7-0.2,1-0.2c1.4,0,2.6,0.9,3.1,2.2c0.3,0.8,0.2,1.7-0.2,2.5c-0.4,0.8-1.1,1.4-1.9,1.6
				c-1.5,0.5-3.1-0.2-3.9-1.5l3-1C181.8,374.9,181.9,374.5,181.8,374.2z M165.3,330.3l2.4,7l-4.5,1.6l-2.3-7L165.3,330.3z
				 M161.7,339.3l-22.3,7.8l-2.3-7l22.3-7.8L161.7,339.3z M144.1,300.3c0.2,0.1,0.4,0.1,0.6,0l3.5-1.2l0,0l-3.5,1.2
				c-0.2,0.1-0.4,0.2-0.5,0.4c-0.1,0.2-0.1,0.4,0,0.6l1.6,4.9c0.1,0.2,0.2,0.4,0.4,0.5c0.2,0.1,0.4,0.1,0.6,0l3.5-1.2l0,0l-3.5,1.2
				c-0.4,0.1-0.7,0.6-0.5,1.1l1.6,4.9c0.1,0.4,0.6,0.7,1.1,0.5l3.5-1.2l0,0l-3.5,1.2c-0.2,0.1-0.4,0.2-0.5,0.4
				c-0.1,0.2-0.1,0.4,0,0.6l1.6,4.9c0.1,0.2,0.2,0.4,0.4,0.5c0.2,0.1,0.4,0.1,0.6,0l3.5-1.2l0,0l-3.5,1.2c-0.4,0.1-0.7,0.6-0.5,1.1
				l1.6,4.9c0.1,0.4,0.6,0.7,1.1,0.5l3.5-1.2l1.8,5.3l-22.3,7.8l-1.9-5.6l3.1-1c0.4-0.1,0.7-0.6,0.5-1.1l-1.6-4.9
				c-0.1-0.2-0.2-0.4-0.4-0.5c-0.2-0.1-0.4-0.1-0.6,0l-3.1,1l0,0l3.1-1c0.4-0.1,0.7-0.6,0.5-1.1l-1.6-4.9c-0.1-0.2-0.2-0.4-0.4-0.5
				c-0.2-0.1-0.4-0.1-0.6,0l-3.1,1l0,0l3.1-1c0.4-0.1,0.7-0.6,0.5-1.1l-1.6-4.9c-0.1-0.2-0.2-0.4-0.4-0.5c-0.2-0.1-0.4-0.1-0.6,0
				l-3.1,1l0,0l3.1-1c0.2-0.1,0.4-0.2,0.5-0.4c0.1-0.2,0.1-0.4,0-0.6l-1.6-4.9c-0.1-0.2-0.2-0.4-0.4-0.5c-0.2-0.1-0.4-0.1-0.6,0
				l-3.1,1l0,0l3.1-1c0.4-0.1,0.7-0.6,0.5-1.1l-1.6-4.9c-0.1-0.4-0.6-0.7-1.1-0.5l-3.1,1l0,0l3.1-1c0.4-0.1,0.7-0.6,0.5-1.1
				l-1.6-4.9c-0.1-0.2-0.2-0.4-0.4-0.5c-0.2-0.1-0.4-0.1-0.6,0l-3.1,1l0,0l3.1-1c0.2-0.1,0.4-0.2,0.5-0.4c0.1-0.2,0.1-0.4,0-0.6
				l-1.6-4.9c-0.1-0.2-0.2-0.4-0.4-0.5c-0.2-0.1-0.4-0.1-0.6,0l-3.1,1l0-0.1l19.2-6.4l-0.1,0.1l-0.2,0.1c-0.4,0.1-0.7,0.6-0.5,1.1
				l0.1,0.2l-5,10.1c-2.1,1.1-3.2,3.6-2.4,5.9c0.7,2,2.5,3.4,4.7,3.4c0.5,0,1.1-0.1,1.6-0.3c1.2-0.4,2.3-1.3,2.8-2.5
				c0.1-0.1,0.1-0.2,0.1-0.3l0.1,0c0.1,0.1,0.2,0.1,0.4,0.1c0.1,0,0.2,0,0.3,0c0.2-0.1,0.4-0.2,0.5-0.4l1.4-2.9l1.6,4.8
				C143.7,300.1,143.9,300.2,144.1,300.3z M133.8,293.6l0.1-0.2c0.3-0.1,0.7-0.2,1-0.2c1.4,0,2.6,0.9,3.1,2.2c0,0.1,0,0.2,0.1,0.3
				L133.8,293.6z M137.9,297.6c0,0.1-0.1,0.2-0.1,0.3c-0.4,0.8-1.1,1.3-1.9,1.6c-1.7,0.6-3.5-0.4-4.1-2c-0.3-1-0.1-2,0.4-2.8
				c0,0,0,0,0.1,0.1L137.9,297.6z M141.7,288.6l2.1-0.7l-1.4,2.7L141.7,288.6z M140.4,287.3c-0.4,0.1-0.7,0.6-0.5,1.1l1.5,4.4
				l-1.5,3.1c0-0.3-0.1-0.7-0.2-1c-0.7-2-2.5-3.4-4.7-3.4c0,0-0.1,0-0.1,0l3.6-7.3l0.8,2.5c0.1,0.2,0.2,0.4,0.4,0.5
				C139.9,287.3,140.1,287.3,140.4,287.3l3.5-1.2l0,0L140.4,287.3z M145.3,284.9l0-0.1c-0.1-0.2-0.2-0.4-0.4-0.5
				c-0.2-0.1-0.4-0.1-0.6,0l-3.5,1.2l-1.1-3.3l0-0.1l3.5-1.2c0.2-0.1,0.4-0.2,0.5-0.4c0.1-0.2,0.1-0.4,0-0.6l-0.6-1.7
				c-0.1-0.4-0.6-0.7-1.1-0.5l-0.2,0.1l5.4-10.7l5.7,2.8L145.3,284.9z M161.9,270.5l-21-10.5l9.8-19.7l3.5,1.8
				c0.1,0.1,0.3,0.1,0.4,0.1c0.3,0,0.6-0.2,0.7-0.5l1.9-3.7c0.1-0.2,0.1-0.4,0.1-0.6c-0.1-0.2-0.2-0.4-0.4-0.5l-3.6-1.8l40.9-82
				c0.9,1.2,2,2.3,3.1,3.3l-3.9,8.4c-0.5,1.2-0.6,2.5-0.1,3.7c0.5,1.2,1.4,2.2,2.5,2.7l12.7,5.8L161.9,270.5z M196.6,169.8
				c-0.8-0.4-1.4-1-1.7-1.8c-0.3-0.8-0.3-1.7,0.1-2.4l4.7-10.2c1.8,1.6,3.9,2.9,6.1,3.9c3.4,1.6,7.1,2.4,10.9,2.4
				c9.8,0,18.9-5.6,23.3-14.3l21.2,9.8l-9.5,20.6c-0.2,0.4,0,0.9,0.4,1.1l4.8,2.2l-3.2,7l-20.6-9.5c-0.4-0.2-0.9,0-1.1,0.4l-2.7,5.8
				L196.6,169.8z M258.4,181.7l12,5.5l-0.1,0.2c-0.2,0.2-0.3,0.5-0.4,0.8l-2.8,6l-11.9-5.5L258.4,181.7z M252,189.5
				c-0.1-0.2-0.2-0.4-0.3-0.5l1.2,0.6l-1,2.2c0,0,0,0.1-0.1,0.1C252.3,191.1,252.3,190.2,252,189.5z M250.4,191.1
				c-0.3,0.7-1.2,1-1.8,0.7c-0.7-0.3-1-1.1-0.7-1.8c0.2-0.5,0.7-0.8,1.3-0.8c0.2,0,0.4,0,0.6,0.1c0.3,0.2,0.6,0.4,0.7,0.8
				C250.6,190.4,250.6,190.8,250.4,191.1z M233.2,180.4l15.5,7.1c-1,0.2-1.9,0.8-2.3,1.7c-0.7,1.5-0.1,3.2,1.3,4l-16.8-7.7
				L233.2,180.4z M232.6,190.6l-1.6-3.2l16.1,7.4c0.6,0.3,1.3,0.4,2,0.4c1.9,0,3.6-1.1,4.4-2.8l1-2.2l11.9,5.5l-4,8.6L232.6,190.6z
				 M278.7,211.8l4-8.6l35.4,16.3l-4,8.6L278.7,211.8z M283.4,201.6l2.8-6c0.1-0.3,0.2-0.5,0.3-0.8l0.1-0.2l35.7,16.4l-0.1,0.2
				c-0.2,0.2-0.3,0.5-0.4,0.8l-2.8,6L283.4,201.6z M387.4,251.3l-4,8.6l-53-24.4l4-8.6L387.4,251.3z M458.3,306.7
				c-0.5-0.1-1-0.3-1.5-0.5l-77-35.4c-2.7-1.2-4.5-3.9-4.7-6.8l9.8,4.5c0.4,0.2,0.9,0,1.1-0.4l9.2-19.9c0.2-0.4,0-0.9-0.4-1.1
				l-10.7-4.9l1.4-3c0.2-0.4,0-0.9-0.4-1.1l-46.9-21.6c-0.2-0.1-0.5-0.1-0.7,0c-0.2,0.1-0.4,0.3-0.5,0.6l-0.3,1.2
				c0,0.2-0.1,0.4-0.2,0.5l-2.8,6l0,0c0,0.1,0,0.2-0.1,0.3c-0.1,0.4-0.4,0.9-0.7,1.2l0.1,0l-5.2,11.2c-0.7,1.5-2.7,2.3-4.2,1.6
				l-7.4-3.4c-0.8-0.4-1.4-1-1.7-1.8c-0.3-0.8-0.3-1.7,0.1-2.4l8.6-18.8c0.1-0.2,0.2-0.3,0.3-0.5l0.7-1c0.1-0.2,0.2-0.5,0.1-0.7
				c-0.1-0.2-0.2-0.4-0.5-0.5l-37.5-17.2c-0.2-0.1-0.5-0.1-0.7,0c-0.2,0.1-0.4,0.3-0.5,0.6l-0.3,1.2c0,0.2-0.1,0.4-0.2,0.5l-2.2,4.8
				c-0.1,0.3-0.2,0.5-0.3,0.7l-0.2,0.5l-0.1,0c0,0.2,0,0.4-0.1,0.6c-0.2,0.5-0.4,0.9-0.7,1.3l-3.8,8.3l-0.7,1.5l-0.5,1.1
				c-0.7,1.5-2.7,2.3-4.2,1.6l-7.4-3.4c-1.6-0.7-2.3-2.6-1.6-4.2l0.5-1c0.1-0.6,0.4-1.1,0.7-1.5l0,0l3.7-8.1c0-0.4,0.2-0.9,0.4-1.3
				c0.2-0.3,0.4-0.6,0.6-0.8l-0.1,0l2.8-6c0.1-0.2,0.2-0.3,0.3-0.5l0.7-1c0.1-0.2,0.2-0.5,0.1-0.7c-0.1-0.2-0.2-0.4-0.5-0.5
				l-18.5-8.5l13-28.2c0.1,0,0.1,0,0.2,0c0.6,0,1.2-0.3,1.5-0.9c0.4-0.7,0.2-1.5-0.4-2l1-2.1l177.8,81.7l4.5,10.6
				c0.1,0.2,0.2,0.3,0.4,0.4l37.4,17.2c-4.3,2.4-8.1,5.3-11.6,8.6l-44.1-20.3c-0.4-0.2-0.9,0-1.1,0.4c-0.2,0.4,0,0.9,0.4,1.1l0,0
				c1,0.5,1.5,1.7,1,2.8c-0.5,1-1.7,1.5-2.8,1c-1-0.5-1.5-1.7-1-2.8c0.2-0.4,0-0.9-0.4-1.1c-0.4-0.2-0.9,0-1.1,0.4c0,0,0,0,0,0
				l-15.9,34.5c0,0,0,0,0,0c-0.2,0.4,0,0.9,0.4,1.1c0.4,0.2,0.9,0,1.1-0.4c0.5-1,1.7-1.5,2.8-1c1,0.5,1.5,1.7,1,2.8
				c-0.5,1-1.7,1.5-2.7,1l0,0c-0.4-0.2-0.9,0-1.1,0.4c-0.2,0.4,0,0.9,0.4,1.1l44.1,20.3C458.3,305.2,458.3,306,458.3,306.7z
				 M417.8,284c0.6-0.4,1.1-0.9,1.4-1.6c0.9-1.9,0-4.1-1.8-5c-0.7-0.3-1.4-0.4-2.1-0.3l13.3-28.9c0.4,0.6,0.9,1.1,1.6,1.4
				c0.5,0.2,1,0.3,1.6,0.3c1.5,0,2.8-0.9,3.4-2.2c0.3-0.7,0.4-1.4,0.3-2.1l96.4,44.3c10.6,4.9,15.2,17.4,10.3,28
				c-3.4,7.5-11,12.3-19.2,12.3c-3,0-6-0.7-8.8-1.9L417.8,284z M509.9,339.1c4.3,2,8.9,3,13.6,3c12.7,0,24.4-7.5,29.7-19
				c3.6-7.9,4-16.8,1-25c-3-8.2-9.1-14.7-17-18.4c-4.3-2-8.9-3-13.6-3c-4.1,0-8.1,0.8-11.8,2.2l-9-4.1c6.2-3.7,13.4-5.8,20.8-5.8
				c5.8,0,11.5,1.2,16.8,3.7c20.2,9.3,29.1,33.4,19.8,53.6c-6.6,14.3-21,23.5-36.8,23.5c-5.8,0-11.5-1.2-16.8-3.7
				c-12.6-5.8-20.8-17.3-23-30l9.1,4.2C495.6,328.3,501.6,335.3,509.9,339.1z M495,321.3l18.5,8.5c3,1.4,6.2,2.1,9.5,2.1
				c8.9,0,17-5.2,20.7-13.3c5.2-11.4,0.2-25-11.2-30.2l-18.6-8.5c3.1-1,6.3-1.6,9.6-1.6c4.5,0,8.8,1,12.9,2.8
				c7.5,3.5,13.3,9.6,16.1,17.4c2.9,7.8,2.6,16.2-0.9,23.7c-5,11-16.1,18.1-28.2,18.1c-4.5,0-8.8-1-12.9-2.8
				C503.3,334.2,497.9,328.3,495,321.3z M573.4,332.3c-8.9,19.4-28.5,31.9-49.9,31.9c-7.9,0-15.6-1.7-22.8-5
				c-13.3-6.1-23.4-17.1-28.5-30.8c-2.3-6.3-3.4-12.7-3.4-19.2l13.2,6.1c2,13.7,10.6,26.2,24.1,32.4c5.6,2.6,11.5,3.8,17.5,3.8
				c16.4,0,31.5-9.6,38.3-24.5c9.7-21.1,0.4-46.1-20.7-55.8c-5.6-2.6-11.5-3.8-17.5-3.8c-8.2,0-16,2.4-22.7,6.6l-13.2-6.1
				c9.8-8.4,22.5-13.3,35.9-13.3c7.9,0,15.6,1.7,22.8,5c13.3,6.1,23.4,17.1,28.5,30.8C580.1,304.1,579.6,319,573.4,332.3z"/>
			<path class="st0" d="M216,110.2c-0.1,0.1-0.1,0.2-0.1,0.4c-0.2,0-0.4,0-0.6,0C215.5,110.5,215.8,110.3,216,110.2z"/>
			<polygon class="st0" points="141.7,279.5 141.7,279.6 140.6,279.9 140.7,279.8 			"/>
			<polygon class="st0" points="146.1,292.6 146.1,292.7 142.7,293.8 142.7,293.8 			"/>
			<path class="st0" d="M251.8,192c-0.1,0.1-0.1,0.2-0.2,0.3C251.7,192.2,251.8,192.1,251.8,192z"/>
			<path class="st0" d="M522.3,323.5c5.7,0,10.9-3.3,13.3-8.5c1.6-3.6,1.8-7.5,0.4-11.2c-1.4-3.7-4.1-6.6-7.6-8.2
				c-1.9-0.9-4-1.3-6.1-1.3c-5.7,0-10.9,3.3-13.3,8.5c-3.4,7.3-0.1,16.1,7.2,19.4C518.1,323,520.2,323.5,522.3,323.5z M520.4,298.5
				c0-0.5,0.3-0.9,0.8-0.9c0.4,0,0.8,0.3,0.8,0.7c0,0.5-0.3,0.9-0.7,0.9l-0.1,0.8v-0.8C520.8,299.2,520.5,298.9,520.4,298.5z
				 M511.7,316.2c0.5,0.6,1.2,1,2,1c0.5,0,1-0.2,1.5-0.5c1.1-0.8,1.4-2.4,0.6-3.5c-0.8-1.1-2.4-1.4-3.5-0.6c-0.5,0.4-0.9,1-1,1.6
				c-0.1,0.6,0,1.3,0.4,1.8c-2.3-3.5-2.9-7.9-1.3-12c-0.1,0.4,0,0.8,0.1,1.2c0.2,0.6,0.7,1.1,1.3,1.4c0.3,0.2,0.7,0.2,1,0.2
				c1,0,1.9-0.6,2.3-1.5c0.6-1.3,0-2.8-1.2-3.3c-1-0.4-2.1-0.2-2.8,0.6c2-3.6,5.5-6.1,9.5-6.6c-1.1,0.4-1.8,1.4-1.7,2.6
				c0.1,1.3,1.2,2.3,2.5,2.3c0,0,0.2,0,0.2,0c1.4-0.1,2.4-1.3,2.3-2.7c-0.1-1.2-1-2.1-2.2-2.2c0.3,0,0.5-0.1,0.8-0.1
				c1.9,0,3.7,0.4,5.4,1.2c3.1,1.4,5.5,4,6.7,7.3c1.2,3.3,1.1,6.8-0.4,9.9c-2.1,4.6-6.7,7.6-11.8,7.6c-1.9,0-3.7-0.4-5.4-1.2
				C514.7,319.6,512.9,318.1,511.7,316.2z M512.9,314.6c0-0.2,0.2-0.4,0.3-0.5c0.1-0.1,0.3-0.2,0.5-0.2c0.3,0,0.5,0.1,0.7,0.3
				c0.3,0.4,0.2,0.9-0.2,1.1c-0.4,0.3-0.9,0.2-1.2-0.2C512.9,315,512.8,314.8,512.9,314.6z M512,304c0.1-0.3,0.4-0.5,0.8-0.5
				c0.1,0,0.2,0,0.3,0.1c0.4,0.2,0.6,0.7,0.4,1.1c-0.2,0.4-0.7,0.6-1.1,0.4c-0.2-0.1-0.4-0.3-0.4-0.5
				C511.9,304.4,511.9,304.2,512,304z"/>
			<path class="st0" d="M529.3,312.1c-0.6,1.3,0,2.7,1.2,3.3c0.3,0.2,0.7,0.2,1,0.2c1,0,1.9-0.6,2.3-1.5c0.3-0.6,0.3-1.3,0.1-1.9
				c-0.2-0.6-0.7-1.1-1.3-1.4C531.4,310.3,529.9,310.9,529.3,312.1z M532.4,313.5c-0.2,0.4-0.7,0.6-1.1,0.4
				c-0.4-0.2-0.6-0.7-0.4-1.1c0.1-0.3,0.4-0.5,0.8-0.5c0.1,0,0.2,0,0.3,0.1c0.2,0.1,0.3,0.3,0.4,0.5
				C532.5,313,532.5,313.3,532.4,313.5z"/>
			<path class="st0" d="M530.7,305.3c0.5,0,1-0.2,1.4-0.5c1.1-0.8,1.4-2.4,0.6-3.5c-0.8-1.1-2.4-1.4-3.5-0.6c-0.5,0.4-0.9,1-1,1.6
				c-0.1,0.7,0,1.3,0.4,1.9C529.1,304.9,529.9,305.3,530.7,305.3z M530.2,302.1c0.1-0.1,0.3-0.2,0.5-0.2c0.3,0,0.5,0.1,0.7,0.3
				c0.3,0.4,0.2,0.9-0.2,1.2c-0.4,0.3-0.9,0.2-1.2-0.2c-0.1-0.2-0.2-0.4-0.1-0.6C529.9,302.4,530,302.2,530.2,302.1z"/>
			<path class="st0" d="M523.1,321.6c0,0,0.2,0,0.2,0c0.7-0.1,1.3-0.4,1.7-0.9c0.4-0.5,0.6-1.2,0.6-1.8c-0.1-1.3-1.2-2.3-2.5-2.3
				c0,0-0.2,0-0.2,0c-0.7,0.1-1.3,0.4-1.7,0.9c-0.4,0.5-0.6,1.2-0.6,1.8C520.7,320.6,521.8,321.6,523.1,321.6z M522.5,318.6
				c0.1-0.2,0.3-0.3,0.6-0.3c0.4,0,0.8,0.3,0.8,0.8c0,0.2,0,0.4-0.2,0.6c-0.1,0.2-0.3,0.3-0.6,0.3l-0.1,0.8v-0.8
				c-0.4,0-0.8-0.3-0.8-0.8C522.3,319,522.3,318.8,522.5,318.6z"/>
			<path class="st0" d="M575.7,420.8l0-78.4c0-0.4-0.2-0.7-0.6-0.8c-0.4-0.1-0.7,0-0.9,0.4c-10.7,17.4-30,28.2-50.3,28.2
				c-5.3,0-10.6-0.7-15.7-2.1c-0.3-0.1-0.5,0-0.7,0.1c-0.2,0.2-0.3,0.4-0.3,0.7l0,75.1c0,0.1,0,0.3,0.1,0.4l3.7,7.2l0.1,61
				c0,0.3,0.2,0.7,0.5,0.8l9.2,3.6l-0.1,29.2c0,0.2,0.1,0.4,0.2,0.6c0.2,0.2,0.4,0.2,0.6,0.2l53.4,0c0.2,0,0.4-0.1,0.6-0.2
				c0.2-0.2,0.2-0.4,0.2-0.6l0-46h3.8c0.4,0,0.7-0.1,1-0.4c0.3-0.3,0.4-0.6,0.4-0.9l0-8.4c0-0.7-0.6-1.3-1.3-1.3h-3.8l0-5.9h3.8
				c0.7,0,1.3-0.6,1.3-1.3l0-8.4c0-0.4-0.1-0.7-0.4-1c-0.3-0.3-0.6-0.4-1-0.4h-3.8l0-5.9h3.8c0.7,0,1.3-0.6,1.3-1.3v-8.4
				c0-0.7-0.6-1.3-1.3-1.3h-3.8l0-5.9h3.8c0.7,0,1.3-0.6,1.3-1.3v-8.4c0-0.7-0.6-1.3-1.3-1.3h-3.8l0-5.9h3.8c0.4,0,0.7-0.1,1-0.4
				c0.3-0.3,0.4-0.6,0.4-0.9l0-8.4c0-0.7-0.6-1.3-1.3-1.3H575.7z M579.2,490.7l0,7.8h-3.4v-7.8H579.2z M574,498.4l-26.4,0l0-7.8
				l26.4,0V498.4z M579.2,473.6l0,7.8h-3.4v-7.8H579.2z M574,481.4l-26.4,0v-7.8l26.4,0V481.4z M579.2,456.5v7.8h-3.5v-7.8H579.2z
				 M574,464.3l-26.4,0v-7.8l26.4,0V464.3z M579.2,439.5v7.8h-3.5v-7.8H579.2z M574,447.2l-26.4,0v-7.8l26.4,0V447.2z M574,437.8
				l-26.7,0c-0.7,0-1.3,0.6-1.3,1.3v8.4c0,0.7,0.6,1.3,1.3,1.3l26.7,0l0,5.9l-26.7,0c-0.7,0-1.3,0.6-1.3,1.3v8.4
				c0,0.7,0.6,1.3,1.3,1.3l26.7,0l0,5.9l-26.7,0c-0.7,0-1.3,0.6-1.3,1.3v8.4c0,0.4,0.1,0.7,0.4,1c0.3,0.3,0.6,0.4,1,0.4l26.7,0
				l0,5.9l-26.7,0c-0.7,0-1.3,0.6-1.3,1.3l0,8.4c0,0.7,0.6,1.3,1.3,1.3l26.7,0l0,45.1l-51.7,0l0.1-28.9c0-0.3-0.2-0.7-0.5-0.8
				l-9.2-3.6l-0.1-60.6c0-0.1,0-0.3-0.1-0.4l-3.7-7.2l0-73.9c4.9,1.3,10,1.9,15.1,1.9c20,0,38.9-10.1,50.2-26.6l0,75.5l-26.7,0
				c-0.7,0-1.3,0.6-1.3,1.3v8.4c0,0.7,0.6,1.3,1.3,1.3l26.7,0L574,437.8z M574,422.4v7.8l-26.4,0v-7.8L574,422.4z M579.2,430.2h-3.4
				v-7.8h3.5L579.2,430.2z"/>
			<path class="st0" d="M460.2,267c0.4,0.2,0.9,0.3,1.4,0.3c1.3,0,2.5-0.8,3.1-2c0.8-1.7,0-3.7-1.7-4.5c-1.6-0.8-3.7,0-4.5,1.7
				C457.8,264.2,458.5,266.2,460.2,267z M460.1,263.2c0.3-0.6,0.9-1,1.6-1c0.2,0,0.5,0.1,0.7,0.2c0.9,0.4,1.2,1.4,0.8,2.3
				c-0.4,0.8-1.4,1.2-2.3,0.8C460.1,265,459.7,264,460.1,263.2z"/>
			<path class="st0" d="M447.8,293.9c0.4,0.2,0.9,0.3,1.4,0.3c1.3,0,2.5-0.8,3.1-2c0.8-1.7,0-3.7-1.7-4.5c-1.7-0.8-3.7,0-4.5,1.7
				C445.4,291.1,446.1,293.1,447.8,293.9z M447.7,290.1c0.3-0.6,0.9-1,1.6-1c0.2,0,0.5,0.1,0.7,0.2c0.9,0.4,1.2,1.4,0.8,2.3
				c-0.4,0.8-1.4,1.2-2.3,0.8C447.7,292,447.3,291,447.7,290.1z"/>
			<path class="st0" d="M435.9,272.8c0.4,0.2,0.9,0.3,1.4,0.3c1.3,0,2.5-0.8,3.1-2c0.4-0.8,0.4-1.7,0.1-2.6
				c-0.3-0.8-0.9-1.5-1.8-1.9c-1.6-0.8-3.7,0-4.5,1.7c-0.4,0.8-0.4,1.7-0.1,2.6C434.4,271.7,435.1,272.4,435.9,272.8z M435.8,269
				c0.3-0.6,0.9-1,1.6-1c0.2,0,0.5,0.1,0.7,0.2c0.4,0.2,0.7,0.5,0.9,1c0.2,0.4,0.1,0.9,0,1.3c-0.4,0.8-1.4,1.2-2.3,0.8
				c-0.4-0.2-0.7-0.5-0.9-1C435.5,269.9,435.6,269.4,435.8,269z"/>
			<path class="st0" d="M269.1,204.9c0.3,0.9,1,1.6,1.8,2c0.5,0.2,1,0.3,1.5,0.3c1.4,0,2.6-0.8,3.2-2c0.8-1.8,0-3.8-1.7-4.7
				c-1.7-0.8-3.9,0-4.7,1.7C268.8,203.1,268.7,204,269.1,204.9z M270.7,202.9c0.3-0.6,0.9-1.1,1.7-1.1c0.3,0,0.5,0.1,0.8,0.2
				c0.9,0.4,1.3,1.5,0.9,2.4c-0.4,0.9-1.5,1.3-2.4,0.9c-0.4-0.2-0.8-0.6-0.9-1C270.5,203.8,270.5,203.3,270.7,202.9z"/>
			<path class="st0" d="M322.6,230.6c0.5,0.2,1,0.3,1.5,0.3c1.4,0,2.6-0.8,3.2-2c0.8-1.8,0-3.8-1.7-4.7c-1.7-0.8-3.9,0-4.7,1.7
				C320.1,227.7,320.8,229.8,322.6,230.6z M322.4,226.7c0.3-0.6,1-1.1,1.7-1.1c0.3,0,0.5,0.1,0.8,0.2c0.9,0.4,1.3,1.5,0.9,2.4
				c-0.4,0.9-1.5,1.3-2.4,0.9C322.4,228.7,322,227.6,322.4,226.7z"/>
			<path class="st0" d="M211.1,147.7c1.8,0.8,3.7,1.2,5.6,1.2c5.2,0,10-3.1,12.2-7.8c1.5-3.3,1.6-6.9,0.4-10.3c-1.2-3.4-3.7-6-7-7.5
				c-1.8-0.8-3.7-1.2-5.6-1.2c-5.2,0-10,3.1-12.2,7.8C201.4,136.7,204.4,144.6,211.1,147.7z M216.7,123.9c1.7,0,3.3,0.4,4.8,1.1
				c2.8,1.3,5,3.6,6.1,6.5c1.1,2.9,1,6.1-0.3,8.9c-1.9,4.1-6.1,6.8-10.6,6.8h0c-1.7,0-3.3-0.4-4.8-1.1c-5.8-2.7-8.4-9.6-5.7-15.4
				C208,126.6,212.2,123.9,216.7,123.9z"/>
			<path class="st0" d="M208.5,153.3c2.6,1.2,5.3,1.8,8.1,1.8c0,0,0,0,0,0c7.6,0,14.6-4.5,17.7-11.3c4.5-9.8,0.2-21.4-9.6-25.9
				c-2.6-1.2-5.3-1.8-8.1-1.8c-7.6,0-14.6,4.5-17.7,11.4C194.5,137.2,198.8,148.8,208.5,153.3z M200.5,128.1
				c2.9-6.3,9.3-10.4,16.2-10.4c2.6,0,5.1,0.5,7.4,1.6c8.9,4.1,12.8,14.7,8.7,23.6c-2.9,6.3-9.3,10.4-16.2,10.4c0,0,0,0,0,0
				c-2.6,0-5.1-0.5-7.4-1.6C200.3,147.6,196.4,137,200.5,128.1z"/>
			<path class="st0" d="M493.4,606.6c1.4,0,2.6-1.2,2.6-2.6c0-1.4-1.2-2.6-2.6-2.6c-1.4,0-2.6,1.2-2.6,2.6
				C490.8,605.4,491.9,606.6,493.4,606.6z M493.4,603.1c0.5,0,0.9,0.4,0.9,0.9c0,0.5-0.4,0.9-0.9,0.9c-0.5,0-0.9-0.4-0.9-0.9
				C492.4,603.5,492.9,603.1,493.4,603.1z"/>
			<path class="st0" d="M493.2,629.2c-1.7,0-3,1.4-3,3s1.4,3,3,3c1.7,0,3-1.4,3-3S494.8,629.2,493.2,629.2z M493.2,633.6
				c-0.7,0-1.4-0.6-1.4-1.4c0-0.7,0.6-1.4,1.4-1.4s1.4,0.6,1.4,1.4C494.5,633,493.9,633.6,493.2,633.6z"/>
			<path class="st0" d="M509,606.7c1.5,0,2.7-1.2,2.7-2.7c0-1.5-1.2-2.7-2.7-2.7c-1.5,0-2.7,1.2-2.7,2.7
				C506.3,605.5,507.5,606.7,509,606.7z M509,602.9c0.6,0,1,0.5,1,1c0,0.6-0.5,1-1,1c-0.6,0-1-0.5-1-1
				C508,603.4,508.5,602.9,509,602.9z"/>
			<path class="st0" d="M509,629.3c-1.6,0-3,1.3-3,3c0,1.6,1.3,3,3,3c1.6,0,3-1.3,3-3C512,630.6,510.7,629.3,509,629.3z M509,633.6
				c-0.7,0-1.3-0.6-1.3-1.3c0-0.7,0.6-1.3,1.3-1.3c0.7,0,1.3,0.6,1.3,1.3C510.3,633,509.7,633.6,509,633.6z"/>
			<path class="st0" d="M711.5,666.1h-83.4l-13.6-17.5c7.3-8.2,11.8-19.1,11.8-30.9c0-25.7-20.9-46.6-46.6-46.6
				c-18.4,0-34.3,10.7-41.9,26.2h-23.3v-1.5l20.9,0c0.3,0,0.6-0.2,0.7-0.5c7.9-15.1,23.8-25.5,40.5-26.5c0.4,0,0.8-0.4,0.8-0.8l0-18
				c0-0.2-0.1-0.4-0.2-0.6c-0.2-0.2-0.4-0.2-0.6-0.2l-58.4,0l0-30.6c0-0.3-0.2-0.7-0.5-0.8l-9.7-3.7l0-11.6c0-0.5-0.4-0.8-0.8-0.8
				h-27.2c-0.5,0-0.8,0.4-0.8,0.8V595c0,0.2,0.1,0.4,0.2,0.6c0.2,0.2,0.4,0.2,0.6,0.2l7.5,0v42.5c0,0.5,0.4,0.8,0.8,0.8h9.2
				c0.5,0,0.8-0.4,0.8-0.8v-0.2h5.3v0.2c0,0.5,0.4,0.8,0.8,0.8h9.2c0.5,0,0.8-0.4,0.8-0.8v-0.2h23.3c1.6,3.4,3.7,6.5,6.1,9.3
				l-16,18.6h-78c-0.1,0-0.2,0-0.3,0l-16.5,5.9c0.3-0.2,0.5-0.6,0.3-1l-1.7-4.8c-0.1-0.2-0.2-0.4-0.4-0.5c-0.2-0.1-0.4-0.1-0.6,0
				l-5.7,2.1c-0.4,0.2-0.7,0.6-0.5,1.1l1.7,4.8c0.1,0.3,0.4,0.5,0.8,0.5l-1.2,0.4c0.1-0.1,0.1-0.2,0.2-0.2c0.1-0.2,0.1-0.4,0-0.6
				L424,669c-0.1-0.2-0.2-0.4-0.4-0.5c-0.2-0.1-0.4-0.1-0.6,0l-5.7,2.1c-0.4,0.2-0.7,0.6-0.5,1.1l1.7,4.8c0.1,0.3,0.4,0.5,0.7,0.5
				l-1.1,0.4c0.1-0.1,0.1-0.1,0.1-0.2c0.1-0.2,0.1-0.4,0-0.6l-1.7-4.8c-0.2-0.4-0.6-0.7-1.1-0.5l-5.7,2.1c-0.2,0.1-0.4,0.2-0.5,0.4
				c-0.1,0.2-0.1,0.4,0,0.6l1.7,4.8c0.1,0.3,0.4,0.5,0.6,0.5l-1,0.4c0,0,0.1-0.1,0.1-0.1c0.1-0.2,0.1-0.4,0-0.6l-1.7-4.8
				c-0.2-0.4-0.6-0.7-1.1-0.5l-5.7,2.1c-0.4,0.2-0.7,0.6-0.5,1.1l1.7,4.8c0.1,0.2,0.2,0.4,0.4,0.5c0,0,0.1,0,0.1,0l-0.9,0.3
				c0.1-0.2,0.2-0.5,0.1-0.7l-1.7-4.8c-0.1-0.2-0.2-0.4-0.4-0.5c-0.2-0.1-0.4-0.1-0.6,0l-5.7,2.1c-0.4,0.2-0.7,0.6-0.5,1.1l1.7,4.8
				c0.1,0.2,0.3,0.4,0.5,0.5l-0.8,0.3c0.1-0.2,0.1-0.4,0.1-0.7l-1.7-4.8c-0.2-0.4-0.6-0.7-1.1-0.5l-5.7,2.1
				c-0.4,0.2-0.7,0.6-0.5,1.1l1.7,4.8c0.1,0.2,0.2,0.4,0.4,0.5l-0.7,0.2c0.1-0.2,0.1-0.4,0-0.6l-1.7-4.8c-0.1-0.2-0.2-0.4-0.4-0.5
				c-0.2-0.1-0.4-0.1-0.6,0l-5.7,2.1c-0.4,0.2-0.7,0.6-0.5,1.1l1.7,4.8c0.1,0.2,0.2,0.3,0.4,0.4l-0.6,0.2c0.1-0.2,0.1-0.4,0-0.6
				l-1.7-4.8c-0.1-0.2-0.2-0.4-0.4-0.5c-0.2-0.1-0.4-0.1-0.6,0l-5.7,2.1c-0.4,0.2-0.7,0.6-0.5,1.1l1.7,4.8c0.1,0.2,0.2,0.3,0.4,0.4
				l-0.6,0.2c0.1-0.2,0.1-0.4,0-0.6l-1.7-4.8c-0.2-0.4-0.6-0.7-1.1-0.5l-5.7,2.1c-0.2,0.1-0.4,0.2-0.5,0.4c-0.1,0.2-0.1,0.4,0,0.6
				l1.7,4.8c0.1,0.2,0.2,0.3,0.3,0.4l-0.5,0.2c0-0.2,0.1-0.3,0-0.5l-1.7-4.8c-0.2-0.4-0.6-0.7-1.1-0.5l-5.7,2.1
				c-0.2,0.1-0.4,0.2-0.5,0.4c-0.1,0.2-0.1,0.4,0,0.6l1.7,4.8c0.1,0.2,0.2,0.3,0.3,0.4l-21.6,7.7c-0.4,0.2-0.7,0.6-0.5,1.1l5.3,14.8
				c0.1,0.3,0.4,0.6,0.8,0.6h369.3c0.5,0,0.8-0.4,0.8-0.8V667C712.4,666.5,712,666.1,711.5,666.1z M579.6,572.8
				c24.8,0,44.9,20.1,44.9,44.9c0,11.3-4.2,21.7-11.2,29.6l-3.8-4.9c5.5-6.7,8.9-15.3,8.9-24.7c0-21.4-17.4-38.8-38.8-38.8
				c-13.9,0-26.1,7.3-33,18.4h-7C547.1,582.8,562.2,572.8,579.6,572.8z M605.9,617.7c0-14.5-11.8-26.2-26.2-26.2
				c-6.2,0-11.9,2.2-16.4,5.8h-14.5c6.6-10,18-16.7,31-16.7c20.5,0,37.1,16.6,37.1,37.1c0,8.8-3.1,16.9-8.3,23.3l-6.9-8.9
				C604.3,628,605.9,623,605.9,617.7z M600.4,630.7l-2.9-3.7c1.4-2.8,2.2-5.9,2.2-9.3c0-11.3-9-20.4-20.1-20.4H566
				c3.9-2.6,8.6-4.1,13.6-4.1c13.5,0,24.6,11,24.6,24.6C604.2,622.5,602.8,626.9,600.4,630.7z M496.6,636.5h-7V599h7V636.5z
				 M496.6,597.3H489v-1.5l7.5,0V597.3z M496.6,594.1l-7.5,0V574h7.5V594.1z M503.6,636.5h-5.3V599h5.3V636.5z M503.6,597.3h-5.3
				v-1.5l5.3,0V597.3z M512.8,636.5h-7.5V599h7.5V636.5z M512.8,597.3h-7.5v-1.5l7.5,0V597.3z M512.8,594.1l-7.5,0V574h7.5V594.1z
				 M513.6,572.3h-9.2c-0.5,0-0.8,0.4-0.8,0.8v21l-5.3,0v-21c0-0.5-0.4-0.8-0.8-0.8h-9.2c-0.5,0-0.8,0.4-0.8,0.8v21l-6.7,0v-90.8
				h25.6l0,11.3c0,0.3,0.2,0.7,0.5,0.8l9.7,3.7l0,30.8c0,0.2,0.1,0.4,0.2,0.6c0.2,0.2,0.4,0.2,0.6,0.2l58.4,0l0,16.4
				c-16.8,1.3-32.7,11.8-40.8,26.9l-20.4,0v-21C514.5,572.7,514.1,572.3,513.6,572.3z M514.5,636.5V599h65.1
				c10.2,0,18.4,8.4,18.4,18.7c0,2.8-0.6,5.4-1.7,7.8l-3.3-4.2l0-0.1c0.1-0.7,0.1-1.2,0.1-1.8c0-7.4-6-13.4-13.4-13.4
				c-7.4,0-13.4,6-13.4,13.4c0,0.5,0,1.1,0.1,1.7l0,0.1l-13.1,15.3H514.5z M551.9,638.1l-1.7,2c-0.5-0.7-1-1.3-1.4-2H551.9z
				 M539.6,638.1h7c0.7,1.2,1.5,2.3,2.3,3.3l-4.1,4.7C542.9,643.7,541.1,641,539.6,638.1z M426.1,669.1l4.2-1.5l1.2,3.2l-4.1,1.5
				L426.1,669.1z M418.5,671.9l4.1-1.5l1.2,3.2l-4.2,1.5L418.5,671.9z M411,674.6l4.1-1.5l1.2,3.2l-4.1,1.5L411,674.6z M403.4,677.3
				l4.1-1.5l1.2,3.2l-4.2,1.5L403.4,677.3z M395.9,680l4.1-1.5l1.2,3.2l-4.1,1.5L395.9,680z M388.3,682.8l4.1-1.5l1.2,3.2l-4.1,1.5
				L388.3,682.8z M380.8,685.5l4.1-1.5l1.2,3.2l-4.1,1.5L380.8,685.5z M373.2,688.2l4.1-1.5l1.2,3.2l-4.1,1.5L373.2,688.2z
				 M365.7,690.9l4.1-1.5l1.2,3.2l-4.1,1.5L365.7,690.9z M358.1,693.7l4.1-1.5l1.2,3.2l-4.1,1.5L358.1,693.7z M710.7,721.1H342.8
				l-4.8-13.5l111.9-39.8h78.3c0.2,0,0.5-0.1,0.6-0.3L568,622c0.2-0.2,0.2-0.4,0.2-0.7l-0.1-0.5c-0.1-0.6-0.1-1.1-0.1-1.5
				c0-6.5,5.3-11.8,11.8-11.8s11.8,5.3,11.8,11.8c0,0.5,0,1-0.1,1.5l-0.1,0.5c0,0.2,0,0.5,0.2,0.6l35.5,45.5
				c0.2,0.2,0.4,0.3,0.7,0.3h83V721.1z"/>
			<path class="st0" d="M589.2,619.9c0-5.3-4.3-9.5-9.5-9.5c-5.3,0-9.5,4.3-9.5,9.5c0,5.3,4.3,9.5,9.5,9.5
				C584.9,629.4,589.2,625.2,589.2,619.9z M571.8,619.9c0-4.3,3.5-7.9,7.9-7.9c4.3,0,7.9,3.5,7.9,7.9c0,4.3-3.5,7.9-7.9,7.9
				C575.3,627.7,571.8,624.2,571.8,619.9z"/>
			<path class="st0" d="M490.3,360.8v128.4h-4.9c-1.6,0-2.8,1.3-2.8,2.8v4.6c0,1.6,1.3,2.8,2.8,2.8h15.5c1.6,0,2.9-1.3,2.9-2.8v-4.6
				c0-1.6-1.3-2.8-2.9-2.8H496V363.6L490.3,360.8z M492,363.5l2.3,1.2v124.1H492V363.5z M502.1,492.1v4.6c0,0.6-0.5,1.2-1.2,1.2
				h-15.5c-0.6,0-1.2-0.5-1.2-1.2v-4.6c0-0.6,0.5-1.2,1.2-1.2h15.5C501.6,490.9,502.1,491.4,502.1,492.1z"/>
		</g>
	</g>
	<line class="st1" x1="234.9" y1="490.9" x2="493.4" y2="490.9"/>
	<line class="st1" x1="521.4" y1="305.3" x2="745" y2="305.3"/>
	<line class="st1" x1="579.6" y1="619.9" x2="738.8" y2="619.9"/>
	<line class="st1" x1="275.9" y1="15.5" x2="216.7" y2="135.5"/>
	<line class="st2" x1="604.8" y1="143.2" x2="521.4" y2="305.3"/>
	<line class="st1" x1="265.1" y1="37.4" x2="580.9" y2="189.7"/>
	<line class="st1" x1="711.6" y1="305.3" x2="711.6" y2="619.9"/>
	<line class="st1" x1="282.6" y1="490.9" x2="282.6" y2="722"/>
	<line class="st1" x1="122.4" y1="286" x2="25.3" y2="315.6"/>
	<line class="st1" x1="189" y1="448.2" x2="77.5" y2="481.7"/>
	<line class="st1" x1="47.6" y1="308.8" x2="100.7" y2="474.7"/>
	<polyline class="st1" points="604.8,252.1 411.2,384.7 364.7,384.7 	"/>
	<g>
		<g>
			<path class="st0" d="M382.3,361.1c1.2-0.2,2.6-0.3,3.9-0.3c1.7,0,3.3,0.3,4.3,1.3c0.8,0.8,1.3,1.9,1.3,3.2c0,2.9-1.7,5.2-4,5.9
				v0.1c1.1,0.5,1.5,1.6,1.6,3.8c0.1,2.2,0.1,4.6,0.3,5.3h-3.7c-0.1-0.6-0.1-2.5-0.1-4.7c0-2.4-0.5-3.2-1.7-3.2h-0.6l-1.4,7.8h-3.5
				L382.3,361.1z M384.2,369.8h0.8c1.8,0,3-1.9,3-4c0-1-0.4-2.1-1.8-2.1c-0.4,0-0.7,0-1,0.1L384.2,369.8z"/>
		</g>
	</g>
	<polygon class="st0" points="467.7,350.5 465.8,347.7 476.8,340.1 	"/>
	<polygon class="st0" points="577,266.5 579,269.3 568,276.9 	"/>
	<polygon class="st0" points="54.5,320.8 51.2,321.7 47.6,308.8 	"/>
	<polygon class="st0" points="93.3,463.6 96.6,462.6 100.7,475.3 	"/>
	<polygon class="st0" points="286,504.3 282.6,504.3 282.6,490.9 	"/>
	<polygon class="st0" points="279.1,708.6 282.6,708.6 282.4,722 	"/>
	<polygon class="st0" points="715.1,318.7 711.6,318.7 711.7,305.3 	"/>
	<polygon class="st0" points="708.2,606 711.6,606.1 711.1,619.5 	"/>
	<polygon class="st0" points="278.4,40.4 276.7,43.4 265.1,36.7 	"/>
	<polygon class="st0" points="567.4,187.3 568.8,184.1 581,189.7 	"/>
	<path class="st0" d="M434.9,96.3c-0.6,1.2-1.8,2-3.5,2.1l0,0.1c0.5,1.2,0.5,2.3,0.1,3.3c-1.1,2.3-3.6,2.8-5.5,2
		c-2-0.9-2.6-2.7-1.8-4.4c0.8-1.8,2.6-2.3,4-2.5l0,0c-0.4-1.1-0.3-1.9,0-2.7c0.9-1.9,3.1-2.6,5.1-1.7
		C435.2,93.2,435.6,94.8,434.9,96.3z M429.2,100.8c0.4-0.9,0.3-1.7-0.2-2.4c-0.8,0.1-2,0.7-2.6,1.9c-0.4,0.9-0.5,1.7,0.3,2
		C427.6,102.6,428.6,101.9,429.2,100.8z M430.4,95c-0.3,0.8-0.3,1.3,0.1,2c1.2-0.1,1.9-0.8,2.3-1.7c0.3-0.7,0.3-1.3-0.3-1.6
		C431.8,93.4,430.8,94,430.4,95z M434,107.2l1.9-2.7l-3.9-1.8l1-1.4l8.5-5l2.2,1l-4.7,6.6l1.2,0.6l-1.2,1.6l-1.2-0.6l-1.9,2.7
		L434,107.2z M437.1,102.9l1.5-2.1c0.5-0.7,1.1-1.4,1.6-2l-0.1,0c-0.8,0.6-1.5,1.1-2.2,1.5l-2.8,1.7l0,0L437.1,102.9z M450.2,104.5
		c-1.6,3.5-5.3,8-8.6,6.4c-2.2-1-1.7-3.3-0.9-4.9c1.9-4,5.6-7.7,8.6-6.3C451.5,100.7,450.8,103.1,450.2,104.5z M442.7,107.2
		c-0.5,1-0.5,1.6,0,1.9c1.4,0.7,4.8-4.7,5.4-6c0.4-0.8,0.4-1.4,0-1.6C446.6,100.8,443.4,105.7,442.7,107.2z"/>
	<path class="st0" d="M735,426.1l-1.7-0.3c-3.8-2-7.6-4-11.4-6v-2.5c3.6,2,7.2,3.9,10.8,5.8l0,0v-4.3l2.2,0.4V426.1z M732.6,430.3
		L732.6,430.3l-1.1-2.3l2,0l1.5,3v2.2l-13.1-2.5v-2.5L732.6,430.3z M731.2,443.1c-3.8,0-9.5-1.5-9.5-5.1c0-2.4,2.3-2.9,4.1-2.9
		c4.4,0,9.4,1.8,9.4,5.1C735.2,442.7,732.7,443.1,731.2,443.1z M725.6,437.4c-1.1,0-1.7,0.2-1.7,0.8c0,1.6,6.2,2.4,7.7,2.4
		c0.8,0,1.5-0.2,1.5-0.7C733.1,438.3,727.3,437.4,725.6,437.4z"/>
	<path class="st0" d="M261.1,594c0,0.2,0,0.5,0.1,0.7c0.4,1.6,1.5,2.9,3.4,3.6v-0.1c-0.6-0.5-0.9-1.2-0.9-2c0-1.8,1.7-2.4,3-2.4
		c2.9,0,5.7,1.8,5.7,4.4c0,2.4-2.1,3.1-4,3.1c-3.4,0-6.1-1.7-7.5-3.1c-1.1-1.2-1.7-2.5-1.9-3.9c-0.1-0.3-0.1-0.5-0.1-0.7L261.1,594z
		 M266.8,596.4c-0.7,0-1.3,0.3-1.3,0.9c0,0.5,0.5,1.1,1.2,1.4c0.1,0,0.3,0.1,0.4,0.1c0.7,0.1,1.2,0.1,1.7,0.1c0.8,0,1.7-0.2,1.7-0.9
		C270.5,596.8,268.2,596.4,266.8,596.4z M272.2,593.5l-1.8-0.3l-1.6-1.5c-2.2-2-4.4-4.1-6.2-4.1c-0.9,0-1.5,0.4-1.5,1.5
		c0,0.8,0.3,1.3,0.5,1.7l-1.9,0.2c-0.4-0.7-0.7-1.7-0.7-2.8c0-2.7,1.8-3.2,3.1-3.2c2.9,0,5.2,2.4,7.1,4.2l0.8,0.7h0v-3.9l2.2,0.4
		V593.5z M262.9,575.9c3.8,0,9.5,1.5,9.5,5.1c0,2.4-2.3,2.9-4.1,2.9c-4.4,0-9.4-1.8-9.4-5.1C258.9,576.3,261.4,575.9,262.9,575.9z
		 M268.5,581.6c1.1,0,1.7-0.2,1.7-0.8c0-1.6-6.2-2.4-7.7-2.4c-0.8,0-1.5,0.2-1.5,0.7C261,580.7,266.8,581.6,268.5,581.6z"/>
	<path class="st0" d="M77.8,382.5l3.3-0.4l-1.3-4.1l1.7-0.3l9.5,2.8l0.8,2.3l-8,1l0.4,1.3l-2,0.3l-0.4-1.3l-3.3,0.4L77.8,382.5z
		 M83,381.8l2.5-0.3c0.8-0.1,1.8-0.1,2.6-0.2l0-0.1c-1-0.2-1.8-0.4-2.6-0.6l-3.2-0.9l0,0L83,381.8z M81.7,387c0,0.5,0,1,0.2,1.6
		c0.4,1.3,1.6,1.9,2.8,1.6c1.2-0.4,1.4-1.5,1.1-2.4l-0.1-0.3l2-0.3l0.1,0.3c0.3,0.9,1.2,2.1,2.5,1.7c0.7-0.2,1-0.9,0.7-1.7
		c-0.2-0.5-0.5-1-0.8-1.2l2-0.6c0.3,0.3,0.9,1.1,1.2,2c0.8,2.3-0.4,3.5-1.7,3.9c-1.6,0.5-3.1-0.2-3.9-1.2l0,0
		c-0.1,1.1-0.9,2.1-2.1,2.4c-2.5,0.8-4.8-0.5-5.7-3.2c-0.3-0.9-0.4-1.9-0.3-2.3L81.7,387z M94.9,399.6l-1-3l-2.5,0.1
		c0,0,0,0.1,0.1,0.1c0.2,0.5,0.2,1.4-0.3,2.3c-0.4,0.7-1.1,1.2-2.1,1.5c-2.7,0.9-5.5-0.5-6.5-3.3c-0.3-0.9-0.4-1.6-0.3-2l2.2-0.1
		c-0.1,0.4,0,0.9,0.2,1.5c0.4,1.4,1.8,2.2,3.2,1.7c1.4-0.5,1.6-1.6,1.2-2.8c-0.1-0.3-0.2-0.5-0.3-0.8l6.8-0.5l1.6,4.9L94.9,399.6z"
		/>
</g>
</svg>
