<?xml version="1.0" encoding="utf-8"?>
<!-- Generator: Adobe Illustrator 22.0.1, SVG Export Plug-In . SVG Version: 6.00 Build 0)  -->
<svg version="1.1" id="Warstwa_1" xmlns="http://www.w3.org/2000/svg" xmlns:xlink="http://www.w3.org/1999/xlink" x="0px" y="0px"
	 viewBox="0 0 58 77" style="enable-background:new 0 0 58 77;" xml:space="preserve">
<style type="text/css">
	.st0{fill:#59AAC5;}
</style>
<g>
	<g>
		<g>
			<rect x="34.5" y="52.7" class="st0" width="1.5" height="6.2"/>
			<rect x="22.9" y="52.7" class="st0" width="1.5" height="6.2"/>
		</g>
		<rect x="21.7" y="51.9" class="st0" width="15.5" height="1.5"/>
		<rect x="21.7" y="55" class="st0" width="15.5" height="1.5"/>
		<rect x="21.7" y="58.1" class="st0" width="15.5" height="1.5"/>
		<rect x="26" y="61.2" class="st0" width="6.9" height="1.5"/>
		<path class="st0" d="M36,53.4h-13v-0.8c0-3-1.3-5.9-3.5-7.9l-0.1-0.1c-0.1-0.1-0.2-0.2-0.3-0.3l0,0c-3.2-2.9-5.1-7.1-5.1-11.4
			c0-8.5,7-15.5,15.5-15.5c8.5,0,15.5,7,15.5,15.5c0,4.3-1.8,8.5-5.1,11.4l0,0c-0.1,0.1-0.2,0.2-0.3,0.3l-0.1,0.1
			c-2.2,2-3.5,4.9-3.5,7.9V53.4z M24.5,51.9h10c0.2-3.2,1.6-6.1,4-8.3l0.1-0.1c0.1-0.1,0.2-0.2,0.3-0.3c2.9-2.6,4.5-6.4,4.5-10.3
			c0-7.7-6.3-14-14-14c-7.7,0-14,6.3-14,14c0,3.9,1.7,7.7,4.5,10.3c0.1,0.1,0.2,0.2,0.3,0.3l0.1,0.1C22.8,45.8,24.3,48.7,24.5,51.9z
			"/>
		<rect x="28.7" y="48.6" class="st0" width="1.5" height="4.1"/>
	</g>
	<g>
		<g>
			<path class="st0" d="M32.9,43.8c-1.7,0-3-1.4-3-3V25c0-1.7,1.4-3,3-3c1.2,0,2.2,0.7,2.7,1.7c0.1,0,0.2,0,0.4,0c1.6,0,3,1.3,3,2.9
				c0.5,0.1,0.9,0.4,1.2,0.7c0.9,0.9,1.1,2.2,0.6,3.4c0.6,0.6,1,1.4,1,2.3c0,0.9-0.4,1.7-1,2.3c0.5,1.1,0.3,2.4-0.6,3.4
				c-0.3,0.3-0.8,0.6-1.2,0.7c-0.1,1.6-1.4,2.9-3,2.9c-0.1,0-0.2,0-0.4,0C35.1,43.2,34,43.8,32.9,43.8z M32.9,23.5
				c-0.8,0-1.5,0.7-1.5,1.5v15.8c0,0.8,0.7,1.5,1.5,1.5c0.7,0,1.3-0.5,1.5-1.2c0-0.2,0.2-0.4,0.4-0.5c0.2-0.1,0.4-0.1,0.7,0
				c0.2,0.1,0.4,0.1,0.6,0.1c0.8,0,1.5-0.7,1.5-1.5c0-0.1,0-0.2,0-0.3c-0.1-0.2,0-0.5,0.1-0.6c0.1-0.2,0.4-0.3,0.6-0.3
				c0.4,0,0.7-0.2,1-0.4c0.6-0.5,0.6-1.4,0.1-2C39,35.3,39,35,39,34.8c0.1-0.2,0.2-0.4,0.4-0.5c0.5-0.2,0.9-0.8,0.9-1.3
				c0-0.6-0.3-1.1-0.9-1.3c-0.2-0.1-0.4-0.3-0.4-0.5c-0.1-0.2,0-0.5,0.2-0.7c0.5-0.6,0.5-1.5-0.1-2c-0.3-0.3-0.6-0.4-1-0.4
				c-0.2,0-0.4-0.1-0.6-0.3c-0.1-0.2-0.2-0.4-0.1-0.6c0-0.1,0-0.2,0-0.3c0-0.8-0.7-1.5-1.5-1.5c-0.2,0-0.4,0-0.6,0.1
				c-0.2,0.1-0.5,0.1-0.7,0c-0.2-0.1-0.3-0.3-0.4-0.5C34.2,24.1,33.6,23.5,32.9,23.5z"/>
			<path class="st0" d="M26.1,43.8c-1.2,0-2.2-0.7-2.7-1.7c-0.1,0-0.2,0-0.4,0c-1.6,0-2.9-1.3-3-2.9c-0.5-0.1-0.9-0.4-1.2-0.7
				c-0.9-0.9-1.1-2.2-0.6-3.4c-0.6-0.6-1-1.4-1-2.3c0-0.9,0.4-1.7,1-2.3c-0.5-1.1-0.3-2.5,0.6-3.4c0.3-0.3,0.8-0.6,1.2-0.7
				c0.1-1.6,1.4-2.9,3-2.9c0.1,0,0.2,0,0.4,0c0.5-1,1.5-1.7,2.7-1.7c1.7,0,3,1.4,3,3v15.8C29.1,42.5,27.8,43.8,26.1,43.8z
				 M23.9,40.5c0.1,0,0.2,0,0.4,0.1c0.2,0.1,0.3,0.3,0.4,0.5c0.1,0.7,0.7,1.2,1.5,1.2c0.8,0,1.5-0.7,1.5-1.5V25
				c0-0.8-0.7-1.5-1.5-1.5c-0.7,0-1.3,0.5-1.5,1.2c0,0.2-0.2,0.4-0.4,0.5c-0.2,0.1-0.4,0.1-0.7,0c-0.2-0.1-0.4-0.1-0.6-0.1
				c-0.8,0-1.5,0.7-1.5,1.5c0,0.1,0,0.2,0,0.3c0,0.2,0,0.5-0.1,0.6c-0.1,0.2-0.4,0.3-0.6,0.3c-0.4,0-0.7,0.2-1,0.4
				c-0.5,0.5-0.6,1.4-0.1,2c0.2,0.2,0.2,0.4,0.2,0.7c-0.1,0.2-0.2,0.4-0.4,0.5c-0.5,0.2-0.9,0.8-0.9,1.3c0,0.6,0.3,1.1,0.9,1.3
				c0.2,0.1,0.4,0.3,0.4,0.5c0.1,0.2,0,0.5-0.2,0.7c-0.5,0.6-0.5,1.5,0.1,2c0.3,0.3,0.6,0.4,1,0.4c0.2,0,0.4,0.1,0.6,0.3
				c0.1,0.2,0.2,0.4,0.1,0.6c0,0.1,0,0.2,0,0.3c0,0.8,0.7,1.5,1.5,1.5c0.2,0,0.4,0,0.6-0.1C23.7,40.5,23.8,40.5,23.9,40.5z"/>
		</g>
	</g>
	<path class="st0" d="M39.4,49.7l-0.8-1.3c0.4-0.3,0.8-0.5,1.2-0.8l0.9,1.3C40.3,49.2,39.9,49.5,39.4,49.7z M19.4,49.7
		c-0.5-0.3-0.9-0.6-1.3-0.9l0.9-1.2c0.4,0.3,0.8,0.6,1.2,0.8L19.4,49.7z M42,47.9l-1-1.2c0.4-0.3,0.7-0.7,1.1-1l1.1,1.1
		C42.9,47.2,42.5,47.5,42,47.9z M16.8,47.8c-0.4-0.3-0.8-0.7-1.2-1.1l1.1-1.1c0.3,0.3,0.7,0.7,1.1,1L16.8,47.8z M44.3,45.6l-1.2-1
		c0.3-0.4,0.6-0.8,0.9-1.2l1.2,0.9C45,44.8,44.7,45.2,44.3,45.6z M14.6,45.5c-0.3-0.4-0.7-0.8-1-1.3l1.2-0.9
		c0.3,0.4,0.6,0.8,0.9,1.2L14.6,45.5z M46.2,43l-1.3-0.8c0.3-0.4,0.5-0.9,0.7-1.3l1.4,0.7C46.8,42,46.5,42.5,46.2,43z M12.7,42.9
		c-0.3-0.5-0.5-0.9-0.8-1.4l1.4-0.7c0.2,0.4,0.5,0.9,0.7,1.3L12.7,42.9z M47.6,40.1l-1.4-0.6c0.2-0.5,0.3-0.9,0.5-1.4l1.5,0.4
		C48,39.1,47.8,39.6,47.6,40.1z M11.3,40c-0.2-0.5-0.4-1-0.5-1.5l1.5-0.4c0.1,0.5,0.3,0.9,0.5,1.4L11.3,40z M48.6,37l-1.5-0.3
		c0.1-0.5,0.2-1,0.2-1.5l1.5,0.2C48.8,35.9,48.7,36.5,48.6,37z M10.4,36.9c-0.1-0.5-0.2-1.1-0.3-1.6l1.5-0.2c0.1,0.5,0.1,1,0.2,1.5
		L10.4,36.9z M49,33.8l-1.5-0.1c0-0.3,0-0.5,0-0.8c0-0.2,0-0.5,0-0.7l0-0.1l1.5-0.1l0,0.1c0,0.3,0,0.5,0,0.8
		C49,33.2,49,33.5,49,33.8z M10,33.7C10,33.7,10,33.7,10,33.7c0-0.3,0-0.6,0-0.8c0-0.3,0-0.5,0-0.8l1.5,0.1c0,0.3,0,0.5,0,0.8
		c0,0.2,0,0.5,0,0.7L10,33.7z M47.3,30.7c-0.1-0.5-0.1-1-0.2-1.5l1.5-0.3c0.1,0.5,0.2,1.1,0.3,1.6L47.3,30.7z M11.6,30.7l-1.5-0.2
		c0.1-0.5,0.2-1.1,0.3-1.6l1.5,0.3C11.8,29.7,11.7,30.2,11.6,30.7z M46.7,27.8c-0.1-0.5-0.3-0.9-0.5-1.4l1.4-0.6
		c0.2,0.5,0.4,1,0.5,1.5L46.7,27.8z M12.2,27.8l-1.5-0.4c0.2-0.5,0.3-1,0.5-1.5l1.4,0.6C12.5,26.8,12.4,27.3,12.2,27.8z M45.6,25
		c-0.2-0.4-0.5-0.9-0.7-1.3l1.3-0.8c0.3,0.5,0.5,0.9,0.8,1.4L45.6,25z M13.3,25l-1.4-0.7c0.2-0.5,0.5-1,0.8-1.4l1.3,0.8
		C13.8,24.1,13.5,24.6,13.3,25z M44.1,22.5c-0.3-0.4-0.6-0.8-0.9-1.2l1.2-1c0.3,0.4,0.7,0.8,1,1.3L44.1,22.5z M14.8,22.5l-1.2-0.9
		c0.3-0.4,0.6-0.9,1-1.3l1.2,1C15.4,21.7,15.1,22.1,14.8,22.5z M42.2,20.2c-0.3-0.3-0.7-0.7-1.1-1l1-1.2c0.4,0.3,0.8,0.7,1.2,1.1
		L42.2,20.2z M16.8,20.2l-1.1-1.1c0.4-0.4,0.8-0.7,1.2-1.1l1,1.2C17.5,19.5,17.1,19.8,16.8,20.2z M39.9,18.3
		c-0.4-0.3-0.8-0.6-1.2-0.8l0.8-1.3c0.5,0.3,0.9,0.6,1.3,0.9L39.9,18.3z M19,18.3L18.1,17c0.4-0.3,0.9-0.6,1.3-0.9l0.8,1.3
		C19.9,17.7,19.4,18,19,18.3z M37.4,16.8c-0.4-0.2-0.9-0.4-1.4-0.6l0.6-1.4c0.5,0.2,1,0.4,1.5,0.6L37.4,16.8z M21.6,16.8l-0.7-1.4
		c0.5-0.2,1-0.5,1.5-0.6l0.6,1.4C22.5,16.3,22,16.5,21.6,16.8z M34.6,15.7c-0.5-0.1-1-0.3-1.4-0.4l0.3-1.5c0.5,0.1,1.1,0.2,1.6,0.4
		L34.6,15.7z M24.4,15.7l-0.4-1.5c0.5-0.2,1-0.3,1.6-0.4l0.3,1.5C25.3,15.4,24.8,15.5,24.4,15.7z M27.3,15.1l-0.2-1.5
		c0.5-0.1,1.1-0.1,1.6-0.1l0.1,1.5C28.2,15,27.7,15,27.3,15.1z M31.7,15.1c-0.5-0.1-1-0.1-1.5-0.1l0.1-1.5c0.5,0,1.1,0.1,1.6,0.1
		L31.7,15.1z"/>
</g>
</svg>
