<?xml version="1.0" encoding="utf-8"?>
<!-- Generator: Adobe Illustrator 22.0.1, SVG Export Plug-In . SVG Version: 6.00 Build 0)  -->
<svg version="1.1" id="Warstwa_1" xmlns="http://www.w3.org/2000/svg" xmlns:xlink="http://www.w3.org/1999/xlink" x="0px" y="0px"
	 viewBox="0 0 555.1 531" style="enable-background:new 0 0 555.1 531;" xml:space="preserve">
<style type="text/css">
	.st0{fill:url(#SVGID_1_);}
</style>
<linearGradient id="SVGID_1_" gradientUnits="userSpaceOnUse" x1="507.4719" y1="265.3667" x2="50.9916" y2="265.3667">
	<stop  offset="0" style="stop-color:#58A6C0"/>
	<stop  offset="1" style="stop-color:#04557A"/>
</linearGradient>
<path class="st0" d="M491.3,227.4L316.7,52.7c-20.3-21.5-54.4-21.5-75.9,0L66.1,227.4c-21.5,20.3-21.5,54.4,0,75.9L240.7,478
	c20.3,21.5,54.4,21.5,75.9,0l174.7-174.7C512.9,281.8,512.9,247.6,491.3,227.4z M430.6,278L291.4,417.2c-7.6,7.6-17.7,7.6-25.3,0
	L126.8,278c-7.6-7.6-7.6-17.7,0-25.3L266,113.5c7.6-7.6,17.7-7.6,25.3,0l139.2,139.2C438.2,259,438.2,270.4,430.6,278z"/>
</svg>
